# device: Logitech Unifying Device. Wireless PID:4027
# bit: 1F 00 00 00 00 00 00 00
# key: 00 00 00 00 00 00 00 00 00 00 00 00 00 00 00 00 00 00 00 00 00 00 00 00 00 00 00 00 00 00 00 00 00 00 FF FF 00 00 00 00 20 E5 00 00 00 00 00 00 00 00 00 00 00 00 00 00 00 00 00 00 00 00 00 00 00 00 00 00 00 00 00 00 00 00 00 00 00 00 00 00 00 00 00 00 00 00 00 00 00 00 00 00 00 00 00 00
# rel: 03 00 00 00 00 00 00 00
# abs: 03 00 00 00 00 80 60 06
# led: 00 00 00 00 00 00 00 00
# prp: 00 00 00 00 00 00 00 00
# absinfo: 0 0 1080 0 0 19
# absinfo: 1 0 1353 0 0 19
# absinfo: 47 0 15 0 0 0
# absinfo: 53 0 1080 0 0 19
# absinfo: 54 0 1353 0 0 19
# absinfo: 57 0 65535 0 0 0
# absinfo: 58 0 255 0 0 0
E: 6573.367410 0003 002f 0
E: 6573.367410 0003 0030 0
E: 6573.367410 0003 0031 0
E: 6573.367410 0003 0032 0
E: 6573.367410 0003 0033 0
E: 6573.367410 0003 0034 0
E: 6573.367410 0003 0035 477
E: 6573.367410 0003 0036 725
E: 6573.367410 0003 0037 0
E: 6573.367410 0003 0038 0
E: 6573.367410 0003 0039 96
E: 6573.367410 0003 003a 34
E: 6573.367410 0003 003b 0
E: 6573.367410 0003 002f 1
E: 6573.367410 0003 0039 -1
E: 6573.367410 0003 002f 2
E: 6573.367410 0003 0039 -1
E: 6573.367410 0003 002f 3
E: 6573.367410 0003 0039 -1
E: 6573.367410 0003 002f 4
E: 6573.367410 0003 0039 -1
E: 6573.367410 0003 002f 5
E: 6573.367410 0003 0039 -1
E: 6573.367410 0003 002f 6
E: 6573.367410 0003 0039 -1
E: 6573.367410 0003 002f 7
E: 6573.367410 0003 0039 -1
E: 6573.367410 0003 002f 8
E: 6573.367410 0003 0039 -1
E: 6573.367410 0003 002f 9
E: 6573.367410 0003 0039 -1
E: 6573.367410 0003 002f 10
E: 6573.367410 0003 0039 -1
E: 6573.367410 0003 002f 11
E: 6573.367410 0003 0039 -1
E: 6573.367410 0003 002f 12
E: 6573.367410 0003 0039 -1
E: 6573.367410 0003 002f 13
E: 6573.367410 0003 0039 -1
E: 6573.367410 0003 002f 14
E: 6573.367410 0003 0039 -1
E: 6573.367410 0003 002f 15
E: 6573.367410 0003 0039 -1
E: 6573.367410 0003 002f 0
E: 6573.367410 0001 0145 1
E: 6573.367410 0001 014a 1
E: 6573.367410 0000 0000 0
E: 6573.379424 0003 0035 476
E: 6573.379424 0003 0036 724
E: 6573.379424 0000 0000 0
E: 6573.397394 0003 0035 467
E: 6573.397394 0003 0036 709
E: 6573.397394 0003 003a 51
E: 6573.397394 0000 0000 0
E: 6573.409424 0003 0035 461
E: 6573.409424 0003 0036 688
E: 6573.409424 0003 003a 83
E: 6573.409424 0000 0000 0
E: 6573.429316 0003 0035 450
E: 6573.429316 0003 0036 660
E: 6573.429316 0003 003a 84
E: 6573.429316 0000 0000 0
E: 6573.441415 0003 0035 447
E: 6573.441415 0003 0036 642
E: 6573.441415 0003 003a 68
E: 6573.441415 0000 0000 0
E: 6573.459393 0003 0035 449
E: 6573.459393 0003 0036 627
E: 6573.459393 0003 003a 52
E: 6573.459393 0000 0000 0
E: 6573.483376 0003 0035 450
E: 6573.483376 0003 0036 605
E: 6573.483376 0000 0000 0
E: 6573.489315 0003 0035 461
E: 6573.489315 0003 0036 577
E: 6573.489315 0003 003a 83
E: 6573.489315 0000 0000 0
E: 6573.513390 0003 0035 453
E: 6573.513390 0003 0036 542
E: 6573.513390 0003 003a 84
E: 6573.513390 0000 0000 0
E: 6573.519316 0003 0035 456
E: 6573.519316 0003 0036 512
E: 6573.519316 0003 003a 68
E: 6573.519316 0000 0000 0
E: 6573.545329 0003 0035 455
E: 6573.545329 0003 0036 478
E: 6573.545329 0003 003a 84
E: 6573.545329 0000 0000 0
E: 6573.549330 0003 0036 456
E: 6573.549330 0003 003a 100
E: 6573.549330 0000 0000 0
E: 6573.567365 0003 0035 458
E: 6573.567365 0003 0036 440
E: 6573.567365 0003 003a 83
E: 6573.567365 0000 0000 0
E: 6573.579387 0003 0036 431
E: 6573.579387 0003 003a 84
E: 6573.579387 0000 0000 0
E: 6573.599369 0003 0036 425
E: 6573.599369 0000 0000 0
E: 6573.617335 0003 0036 422
E: 6573.617335 0000 0000 0
E: 6573.629395 0003 0036 421
E: 6573.629395 0000 0000 0
E: 6573.647325 0003 003a 83
E: 6573.647325 0000 0000 0
E: 6573.677374 0003 0036 422
E: 6573.677374 0000 0000 0
E: 6573.689361 0003 0035 459
E: 6573.689361 0003 0036 421
E: 6573.689361 0000 0000 0
E: 6573.707360 0003 0036 422
E: 6573.707360 0000 0000 0
E: 6573.737362 0003 0036 423
E: 6573.737362 0000 0000 0
E: 6573.755360 0003 003a 84
E: 6573.755360 0000 0000 0
E: 6573.767360 0003 003a 83
E: 6573.767360 0000 0000 0
E: 6573.785361 0003 003a 84
E: 6573.785361 0000 0000 0
E: 6573.799361 0003 003a 83
E: 6573.799361 0000 0000 0
E: 6573.817359 0003 0036 424
E: 6573.817359 0000 0000 0
E: 6573.829361 0003 0035 457
E: 6573.829361 0003 0036 421
E: 6573.829361 0003 003a 84
E: 6573.829361 0000 0000 0
E: 6573.847360 0003 0035 458
E: 6573.847360 0003 0036 424
E: 6573.847360 0000 0000 0
E: 6573.859361 0003 0036 422
E: 6573.859361 0000 0000 0
E: 6573.877360 0003 0035 457
E: 6573.877360 0003 0036 423
E: 6573.877360 0000 0000 0
E: 6573.895359 0003 0035 458
E: 6573.895359 0000 0000 0
E: 6573.907359 0003 0035 457
E: 6573.907359 0000 0000 0
E: 6573.925359 0003 0036 422
E: 6573.925359 0000 0000 0
E: 6573.937359 0003 0035 458
E: 6573.937359 0003 0036 423
E: 6573.937359 0003 003a 83
E: 6573.937359 0000 0000 0
E: 6573.955359 0003 0036 424
E: 6573.955359 0000 0000 0
E: 6573.969360 0003 0035 457
E: 6573.969360 0003 0036 425
E: 6573.969360 0003 003a 84
E: 6573.969360 0000 0000 0
E: 6573.987359 0003 0035 458
E: 6573.987359 0003 0036 424
E: 6573.987359 0000 0000 0
E: 6573.999360 0003 0036 423
E: 6573.999360 0000 0000 0
E: 6574.017359 0003 0036 424
E: 6574.017359 0000 0000 0
E: 6574.029420 0003 0036 423
E: 6574.029420 0000 0000 0
E: 6574.047389 0003 0036 424
E: 6574.047389 0003 003a 83
E: 6574.047389 0000 0000 0
E: 6574.065408 0003 0036 425
E: 6574.065408 0003 003a 84
E: 6574.065408 0000 0000 0
E: 6574.107437 0003 0035 457
E: 6574.107437 0003 0036 427
E: 6574.107437 0003 003a 83
E: 6574.107437 0000 0000 0
E: 6574.121411 0002 0000 -3
E: 6574.121411 0002 0001 3
E: 6574.121411 0000 0000 0
E: 6574.127325 0003 003a 84
E: 6574.127325 0000 0000 0
E: 6574.133349 0002 0000 -7
E: 6574.133349 0002 0001 4
E: 6574.133349 0000 0000 0
E: 6574.139332 0003 0035 456
E: 6574.139332 0003 0036 426
E: 6574.139332 0000 0000 0
E: 6574.145330 0002 0000 -10
E: 6574.145330 0002 0001 6
E: 6574.145330 0000 0000 0
E: 6574.151325 0002 0000 -2
E: 6574.151325 0002 0001 1
E: 6574.151325 0000 0000 0
E: 6574.157390 0003 0035 458
E: 6574.157390 0000 0000 0
E: 6574.163306 0002 0000 -9
E: 6574.163306 0002 0001 4
E: 6574.163306 0000 0000 0
E: 6574.169333 0003 0035 456
E: 6574.169333 0003 0036 425
E: 6574.169333 0000 0000 0
E: 6574.175384 0002 0000 -8
E: 6574.175384 0002 0001 4
E: 6574.175384 0000 0000 0
E: 6574.181307 0002 0000 -5
E: 6574.181307 0002 0001 2
E: 6574.181307 0000 0000 0
E: 6574.193311 0002 0000 -7
E: 6574.193311 0002 0001 3
E: 6574.193311 0000 0000 0
E: 6574.199308 0002 0000 -5
E: 6574.199308 0002 0001 3
E: 6574.199308 0000 0000 0
E: 6574.205388 0003 0035 457
E: 6574.205388 0000 0000 0
E: 6574.211303 0002 0000 -8
E: 6574.211303 0002 0001 4
E: 6574.211303 0000 0000 0
E: 6574.217359 0003 0035 456
E: 6574.217359 0003 0036 424
E: 6574.217359 0000 0000 0
E: 6574.223352 0002 0000 -8
E: 6574.223352 0002 0001 5
E: 6574.223352 0000 0000 0
E: 6574.229317 0002 0000 -5
E: 6574.229317 0002 0001 3
E: 6574.229317 0000 0000 0
E: 6574.235358 0003 0035 457
E: 6574.235358 0003 0036 423
E: 6574.235358 0000 0000 0
E: 6574.243352 0002 0000 -8
E: 6574.243352 0002 0001 5
E: 6574.243352 0000 0000 0
E: 6574.247359 0003 003a 83
E: 6574.247359 0000 0000 0
E: 6574.253352 0002 0000 -9
E: 6574.253352 0002 0001 6
E: 6574.253352 0000 0000 0
E: 6574.261368 0002 0000 -2
E: 6574.261368 0002 0001 2
E: 6574.261368 0000 0000 0
E: 6574.265357 0003 0036 422
E: 6574.265357 0003 003a 84
E: 6574.265357 0000 0000 0
E: 6574.273353 0002 0000 -8
E: 6574.273353 0002 0001 6
E: 6574.273353 0000 0000 0
E: 6574.279358 0003 0036 420
E: 6574.279358 0000 0000 0
E: 6574.283352 0002 0000 -5
E: 6574.283352 0002 0001 4
E: 6574.283352 0000 0000 0
E: 6574.291350 0002 0000 -3
E: 6574.291350 0002 0001 3
E: 6574.291350 0000 0000 0
E: 6574.297356 0003 0036 421
E: 6574.297356 0000 0000 0
E: 6574.303352 0002 0000 -5
E: 6574.303352 0002 0001 4
E: 6574.303352 0000 0000 0
E: 6574.309358 0003 003a 83
E: 6574.309358 0000 0000 0
E: 6574.315351 0002 0000 -3
E: 6574.315351 0002 0001 3
E: 6574.315351 0000 0000 0
E: 6574.321350 0002 0000 -3
E: 6574.321350 0002 0001 3
E: 6574.321350 0000 0000 0
E: 6574.327356 0003 0035 458
E: 6574.327356 0003 0036 420
E: 6574.327356 0003 003a 84
E: 6574.327356 0000 0000 0
E: 6574.333300 0002 0000 -3
E: 6574.333300 0002 0001 4
E: 6574.333300 0000 0000 0
E: 6574.339350 0002 0000 -2
E: 6574.339350 0002 0001 2
E: 6574.339350 0000 0000 0
E: 6574.345357 0003 0035 457
E: 6574.345357 0000 0000 0
E: 6574.351348 0002 0000 -3
E: 6574.351348 0002 0001 5
E: 6574.351348 0000 0000 0
E: 6574.357326 0003 0035 458
E: 6574.357326 0003 0036 419
E: 6574.357326 0003 003a 83
E: 6574.357326 0000 0000 0
E: 6574.363351 0002 0000 -4
E: 6574.363351 0002 0001 6
E: 6574.363351 0000 0000 0
E: 6574.369316 0002 0001 1
E: 6574.369316 0000 0000 0
E: 6574.375356 0003 003a 84
E: 6574.375356 0000 0000 0
E: 6574.381316 0002 0000 -2
E: 6574.381316 0002 0001 5
E: 6574.381316 0000 0000 0
E: 6574.387356 0003 0036 418
E: 6574.387356 0003 003a 83
E: 6574.387356 0000 0000 0
E: 6574.393352 0002 0000 -1
E: 6574.393352 0002 0001 4
E: 6574.393352 0000 0000 0
E: 6574.399297 0002 0000 -1
E: 6574.399297 0002 0001 2
E: 6574.399297 0000 0000 0
E: 6574.405356 0003 0035 459
E: 6574.405356 0003 0036 417
E: 6574.405356 0000 0000 0
E: 6574.413350 0002 0000 -1
E: 6574.413350 0002 0001 3
E: 6574.413350 0000 0000 0
E: 6574.417356 0003 0036 418
E: 6574.417356 0000 0000 0
E: 6574.423349 0002 0001 3
E: 6574.423349 0000 0000 0
E: 6574.431350 0002 0001 2
E: 6574.431350 0000 0000 0
E: 6574.435355 0003 0036 417
E: 6574.435355 0000 0000 0
E: 6574.443351 0002 0001 5
E: 6574.443351 0000 0000 0
E: 6574.453351 0002 0000 2
E: 6574.453351 0002 0001 7
E: 6574.453351 0000 0000 0
E: 6574.461350 0002 0000 1
E: 6574.461350 0002 0001 2
E: 6574.461350 0000 0000 0
E: 6574.467355 0003 0036 416
E: 6574.467355 0000 0000 0
E: 6574.471294 0002 0000 2
E: 6574.471294 0002 0001 6
E: 6574.471294 0000 0000 0
E: 6574.479350 0002 0000 1
E: 6574.479350 0002 0001 1
E: 6574.479350 0000 0000 0
E: 6574.485355 0003 0035 461
E: 6574.485355 0000 0000 0
E: 6574.491350 0002 0000 2
E: 6574.491350 0002 0001 4
E: 6574.491350 0000 0000 0
E: 6574.497354 0003 0035 460
E: 6574.497354 0000 0000 0
E: 6574.503402 0002 0000 1
E: 6574.503402 0002 0001 1
E: 6574.503402 0000 0000 0
E: 6574.515388 0003 0035 461
E: 6574.515388 0003 0036 413
E: 6574.515388 0000 0000 0
E: 6574.539410 0002 0000 1
E: 6574.539410 0002 0001 1
E: 6574.539410 0000 0000 0
E: 6574.551409 0002 0000 2
E: 6574.551409 0002 0001 3
E: 6574.551409 0000 0000 0
E: 6574.563408 0002 0000 6
E: 6574.563408 0002 0001 5
E: 6574.563408 0000 0000 0
E: 6574.569311 0002 0000 2
E: 6574.569311 0002 0001 1
E: 6574.569311 0000 0000 0
E: 6574.575395 0003 0036 412
E: 6574.575395 0000 0000 0
E: 6574.581321 0002 0000 6
E: 6574.581321 0002 0001 5
E: 6574.581321 0000 0000 0
E: 6574.587326 0003 0035 462
E: 6574.587326 0003 0036 413
E: 6574.587326 0000 0000 0
E: 6574.593400 0002 0000 3
E: 6574.593400 0002 0001 1
E: 6574.593400 0000 0000 0
E: 6574.601308 0002 0000 2
E: 6574.601308 0002 0001 1
E: 6574.601308 0000 0000 0
E: 6574.605379 0003 0035 461
E: 6574.605379 0003 0036 412
E: 6574.605379 0000 0000 0
E: 6574.613309 0002 0000 1
E: 6574.613309 0002 0001 1
E: 6574.613309 0000 0000 0
E: 6574.617358 0003 0036 413
E: 6574.617358 0000 0000 0
E: 6574.653413 0003 0036 412
E: 6574.653413 0000 0000 0
E: 6574.715362 0003 0036 413
E: 6574.715362 0000 0000 0
E: 6574.745354 0003 0036 414
E: 6574.745354 0000 0000 0
E: 6574.757355 0003 0035 462
E: 6574.757355 0000 0000 0
E: 6574.775322 0003 0035 461
E: 6574.775322 0003 0036 415
E: 6574.775322 0003 002f 1
E: 6574.775322 0003 0039 97
E: 6574.775322 0003 0035 908
E: 6574.775322 0003 0036 314
E: 6574.775322 0003 003a 66
E: 6574.775322 0001 0145 0
E: 6574.775322 0001 014d 1
E: 6574.775322 0000 0000 0
E: 6574.793303 0003 002f 0
E: 6574.793303 0003 0036 414
E: 6574.793303 0003 002f 1
E: 6574.793303 0003 0036 316
E: 6574.793303 0000 0000 0
E: 6574.805357 0003 002f 0
E: 6574.805357 0003 0035 462
E: 6574.805357 0003 002f 1
E: 6574.805357 0003 0036 315
E: 6574.805357 0000 0000 0
E: 6574.825357 0003 002f 0
E: 6574.825357 0003 0035 464
E: 6574.825357 0003 0036 415
E: 6574.825357 0003 002f 1
E: 6574.825357 0003 0036 314
E: 6574.825357 0000 0000 0
E: 6574.837359 0003 002f 0
E: 6574.837359 0003 0035 461
E: 6574.837359 0003 002f 1
E: 6574.837359 0003 0035 907
E: 6574.837359 0000 0000 0
E: 6574.855354 0003 002f 0
E: 6574.855354 0003 0035 463
E: 6574.855354 0003 0036 416
E: 6574.855354 0003 002f 1
E: 6574.855354 0003 0035 906
E: 6574.855354 0003 0036 316
E: 6574.855354 0000 0000 0
E: 6574.867328 0003 002f 0
E: 6574.867328 0003 0035 462
E: 6574.867328 0003 0036 415
E: 6574.867328 0003 002f 1
E: 6574.867328 0003 0039 -1
E: 6574.867328 0001 0145 1
E: 6574.867328 0001 014d 0
E: 6574.867328 0000 0000 0
E: 6574.885352 0003 002f 0
E: 6574.885352 0003 0035 464
E: 6574.885352 0003 0036 414
E: 6574.885352 0000 0000 0
E: 6574.897353 0003 0035 488
E: 6574.897353 0003 0036 419
E: 6574.897353 0003 003a 82
E: 6574.897353 0000 0000 0
E: 6574.915353 0003 0039 -1
E: 6574.915353 0001 014a 0
E: 6574.915353 0001 0145 0
E: 6574.915353 0000 0000 0
E: 6574.915853 0003 002f 0
E: 6574.915853 0003 0039 -1
E: 6574.915853 0003 002f 1
E: 6574.915853 0003 0039 -1
E: 6574.915853 0003 002f 2
E: 6574.915853 0003 0039 -1
E: 6574.915853 0003 002f 3
E: 6574.915853 0003 0039 -1
E: 6574.915853 0003 002f 4
E: 6574.915853 0003 0039 -1
E: 6574.915853 0003 002f 5
E: 6574.915853 0003 0039 -1
E: 6574.915853 0003 002f 6
E: 6574.915853 0003 0039 -1
E: 6574.915853 0003 002f 7
E: 6574.915853 0003 0039 -1
E: 6574.915853 0003 002f 8
E: 6574.915853 0003 0039 -1
E: 6574.915853 0003 002f 9
E: 6574.915853 0003 0039 -1
E: 6574.915853 0003 002f 10
E: 6574.915853 0003 0039 -1
E: 6574.915853 0003 002f 11
E: 6574.915853 0003 0039 -1
E: 6574.915853 0003 002f 12
E: 6574.915853 0003 0039 -1
E: 6574.915853 0003 002f 13
E: 6574.915853 0003 0039 -1
E: 6574.915853 0003 002f 14
E: 6574.915853 0003 0039 -1
E: 6574.915853 0003 002f 15
E: 6574.915853 0003 0039 -1
