# device: Elan Touchpad
# bit: 0B 00 00 00 00 00 00 00
# key: 00 00 00 00 00 00 00 00 00 00 00 00 00 00 00 00 00 00 00 00 00 00 00 00 00 00 00 00 00 00 00 00 00 00 01 00 00 00 00 00 20 E5 00 00 00 00 00 00 00 00 00 00 00 00 00 00 00 00 00 00 00 00 00 00 00 00 00 00 00 00 00 00 00 00 00 00 00 00 00 00 00 00 00 00 00 00 00 00 00 00 00 00 00 00 00 00
# rel: 00 00 00 00 00 00 00 00
# abs: 03 00 00 11 00 80 63 06
# led: 00 00 00 00 00 00 00 00
# prp: 05 00 00 00 00 00 00 00
# absinfo: 0 0 2948 0 0 31
# absinfo: 1 0 1604 0 0 31
# absinfo: 24 0 255 0 0 0
# absinfo: 28 0 15 0 0 0
# absinfo: 47 0 4 0 0 0
# absinfo: 48 0 2400 0 0 0
# absinfo: 49 0 2325 0 0 0
# absinfo: 53 0 2948 0 0 31
# absinfo: 54 0 1604 0 0 31
# absinfo: 57 0 65535 0 0 0
# absinfo: 58 0 255 0 0 0
E: 14716.131392 0003 002f 0
E: 14716.131392 0003 0030 280
E: 14716.131392 0003 0031 260
E: 14716.131392 0003 0032 0
E: 14716.131392 0003 0033 0
E: 14716.131392 0003 0034 0
E: 14716.131392 0003 0035 1339
E: 14716.131392 0003 0036 868
E: 14716.131392 0003 0037 0
E: 14716.131392 0003 0038 0
E: 14716.131392 0003 0039 86
E: 14716.131392 0003 003a 60
E: 14716.131392 0003 003b 0
E: 14716.131392 0003 002f 1
E: 14716.131392 0003 0039 -1
E: 14716.131392 0003 002f 2
E: 14716.131392 0003 0039 -1
E: 14716.131392 0003 002f 3
E: 14716.131392 0003 0039 -1
E: 14716.131392 0003 002f 4
E: 14716.131392 0003 0039 -1
E: 14716.131392 0003 002f 0
E: 14716.131392 0001 0145 1
E: 14716.131392 0001 014a 1
E: 14716.131392 0000 0000 0
E: 14716.138833 0003 003a 62
E: 14716.138833 0003 0018 62
E: 14716.138833 0000 0000 0
E: 14716.158360 0003 003a 63
E: 14716.158360 0003 0018 63
E: 14716.158360 0000 0000 0
E: 14716.188040 0003 003a 64
E: 14716.188040 0003 0018 64
E: 14716.188040 0000 0000 0
E: 14716.197410 0003 003a 65
E: 14716.197410 0003 0018 65
E: 14716.197410 0000 0000 0
E: 14716.216973 0003 003a 66
E: 14716.216973 0003 0018 66
E: 14716.216973 0000 0000 0
E: 14716.236513 0003 003a 67
E: 14716.236513 0003 0018 67
E: 14716.236513 0000 0000 0
E: 14716.275588 0003 003a 68
E: 14716.275588 0003 0018 68
E: 14716.275588 0000 0000 0
E: 14716.304900 0003 003a 69
E: 14716.304900 0001 0110 1
E: 14716.304900 0003 0018 69
E: 14716.304900 0000 0000 0
E: 14716.334226 0003 003a 70
E: 14716.334226 0003 0018 70
E: 14716.334226 0000 0000 0
E: 14716.402597 0003 003a 69
E: 14716.402597 0001 0110 0
E: 14716.402597 0003 0018 69
E: 14716.402597 0000 0000 0
E: 14716.412739 0003 003a 68
E: 14716.412739 0003 0018 68
E: 14716.412739 0000 0000 0
E: 14716.431878 0003 003a 67
E: 14716.431878 0003 0018 67
E: 14716.431878 0000 0000 0
E: 14716.451408 0003 001c 1
E: 14716.451408 0003 0030 70
E: 14716.451408 0003 0031 65
E: 14716.451408 0000 0000 0
E: 14716.461154 0003 0039 -1
E: 14716.461154 0001 014a 0
E: 14716.461154 0001 0145 0
E: 14716.461154 0003 0018 0
E: 14716.461154 0000 0000 0
E: 14718.034173 0003 0039 87
E: 14718.034173 0003 0035 937
E: 14718.034173 0003 0036 854
E: 14718.034173 0003 003a 47
E: 14718.034173 0003 001c 3
E: 14718.034173 0003 0030 210
E: 14718.034173 0003 0031 195
E: 14718.034173 0001 014a 1
E: 14718.034173 0001 0145 1
E: 14718.034173 0003 0000 937
E: 14718.034173 0003 0001 854
E: 14718.034173 0003 0018 47
E: 14718.034173 0000 0000 0
E: 14718.037915 0003 003a 49
E: 14718.037915 0003 002f 1
E: 14718.037915 0003 0039 88
E: 14718.037915 0003 0035 1726
E: 14718.037915 0003 0036 778
E: 14718.037915 0003 003a 48
E: 14718.037915 0003 0030 210
E: 14718.037915 0003 0031 195
E: 14718.037915 0001 0145 0
E: 14718.037915 0001 014d 1
E: 14718.037915 0003 0018 49
E: 14718.037915 0000 0000 0
E: 14718.044091 0003 002f 0
E: 14718.044091 0003 003a 51
E: 14718.044091 0003 002f 1
E: 14718.044091 0003 003a 50
E: 14718.044091 0003 0018 51
E: 14718.044091 0000 0000 0
E: 14718.053865 0003 002f 0
E: 14718.053865 0003 003a 53
E: 14718.053865 0003 0030 280
E: 14718.053865 0003 002f 1
E: 14718.053865 0003 003a 52
E: 14718.053865 0003 0018 53
E: 14718.053865 0000 0000 0
E: 14718.063632 0003 002f 0
E: 14718.063632 0003 003a 55
E: 14718.063632 0003 0018 55
E: 14718.063632 0000 0000 0
E: 14718.073408 0003 003a 56
E: 14718.073408 0003 002f 1
E: 14718.073408 0003 003a 53
E: 14718.073408 0003 0018 56
E: 14718.073408 0000 0000 0
E: 14718.083167 0003 003a 54
E: 14718.083167 0000 0000 0
E: 14718.092954 0003 002f 0
E: 14718.092954 0003 003a 57
E: 14718.092954 0003 002f 1
E: 14718.092954 0003 003a 55
E: 14718.092954 0003 0018 57
E: 14718.092954 0000 0000 0
E: 14718.102716 0003 002f 0
E: 14718.102716 0003 003a 59
E: 14718.102716 0003 002f 1
E: 14718.102716 0003 003a 56
E: 14718.102716 0003 0018 59
E: 14718.102716 0000 0000 0
E: 14718.112480 0003 002f 0
E: 14718.112480 0003 003a 60
E: 14718.112480 0003 002f 1
E: 14718.112480 0003 003a 57
E: 14718.112480 0003 0018 60
E: 14718.112480 0000 0000 0
E: 14718.122273 0003 003a 58
E: 14718.122273 0000 0000 0
E: 14718.132038 0003 002f 0
E: 14718.132038 0003 003a 61
E: 14718.132038 0003 002f 1
E: 14718.132038 0003 003a 59
E: 14718.132038 0003 0018 61
E: 14718.132038 0000 0000 0
E: 14718.141799 0003 002f 0
E: 14718.141799 0003 003a 62
E: 14718.141799 0003 0018 62
E: 14718.141799 0000 0000 0
E: 14718.151584 0003 003a 63
E: 14718.151584 0003 002f 1
E: 14718.151584 0003 003a 60
E: 14718.151584 0003 0018 63
E: 14718.151584 0000 0000 0
E: 14718.161356 0003 001c 4
E: 14718.161356 0003 002f 0
E: 14718.161356 0003 0031 260
E: 14718.161356 0003 001c 3
E: 14718.161356 0000 0000 0
E: 14718.171129 0003 003a 64
E: 14718.171129 0003 001c 4
E: 14718.171129 0003 002f 1
E: 14718.171129 0003 003a 61
E: 14718.171129 0003 001c 3
E: 14718.171129 0003 0018 64
E: 14718.171129 0000 0000 0
E: 14718.180923 0003 001c 4
E: 14718.180923 0003 001c 3
E: 14718.180923 0000 0000 0
E: 14718.190669 0003 002f 0
E: 14718.190669 0003 003a 65
E: 14718.190669 0003 001c 4
E: 14718.190669 0003 002f 1
E: 14718.190669 0003 003a 62
E: 14718.190669 0003 001c 3
E: 14718.190669 0003 0018 65
E: 14718.190669 0000 0000 0
E: 14718.200433 0003 001c 4
E: 14718.200433 0003 003a 63
E: 14718.200433 0003 001c 3
E: 14718.200433 0000 0000 0
E: 14718.210661 0003 002f 0
E: 14718.210661 0003 003a 66
E: 14718.210661 0003 001c 4
E: 14718.210661 0003 001c 3
E: 14718.210661 0003 0018 66
E: 14718.210661 0000 0000 0
E: 14718.219963 0003 001c 4
E: 14718.219963 0003 002f 1
E: 14718.219963 0003 003a 64
E: 14718.219963 0003 001c 3
E: 14718.219963 0000 0000 0
E: 14718.229738 0003 002f 0
E: 14718.229738 0003 003a 67
E: 14718.229738 0003 001c 4
E: 14718.229738 0003 002f 1
E: 14718.229738 0003 003a 65
E: 14718.229738 0003 001c 3
E: 14718.229738 0003 0018 67
E: 14718.229738 0000 0000 0
E: 14718.239428 0003 001c 4
E: 14718.239428 0003 001c 3
E: 14718.239428 0000 0000 0
E: 14718.249275 0003 001c 4
E: 14718.249275 0003 003a 66
E: 14718.249275 0003 0030 260
E: 14718.249275 0003 0031 210
E: 14718.249275 0000 0000 0
E: 14718.259043 0003 003a 67
E: 14718.259043 0001 0110 1
E: 14718.259043 0000 0000 0
E: 14718.268813 0003 002f 0
E: 14718.268813 0003 003a 68
E: 14718.268813 0003 0018 68
E: 14718.268813 0000 0000 0
E: 14718.317670 0003 002f 1
E: 14718.317670 0003 003a 68
E: 14718.317670 0003 0030 280
E: 14718.317670 0003 0031 260
E: 14718.317670 0000 0000 0
E: 14718.337036 0003 002f 0
E: 14718.337036 0003 003a 69
E: 14718.337036 0003 0018 69
E: 14718.337036 0000 0000 0
E: 14718.347051 0003 002f 1
E: 14718.347051 0003 003a 69
E: 14718.347051 0000 0000 0
E: 14718.366563 0003 002f 0
E: 14718.366563 0003 003a 68
E: 14718.366563 0003 0018 68
E: 14718.366563 0000 0000 0
E: 14718.376251 0003 003a 69
E: 14718.376251 0003 0018 69
E: 14718.376251 0000 0000 0
E: 14718.445116 0003 002f 1
E: 14718.445116 0003 003a 68
E: 14718.445116 0003 0030 260
E: 14718.445116 0003 0031 210
E: 14718.445116 0001 0110 0
E: 14718.445116 0000 0000 0
E: 14718.454516 0003 002f 0
E: 14718.454516 0003 003a 68
E: 14718.454516 0003 002f 1
E: 14718.454516 0003 0030 280
E: 14718.454516 0003 0031 260
E: 14718.454516 0003 0018 68
E: 14718.454516 0000 0000 0
E: 14718.464168 0003 002f 0
E: 14718.464168 0003 003a 69
E: 14718.464168 0003 002f 1
E: 14718.464168 0003 003a 67
E: 14718.464168 0003 0018 69
E: 14718.464168 0000 0000 0
E: 14718.473983 0003 002f 0
E: 14718.473983 0003 003a 67
E: 14718.473983 0003 002f 1
E: 14718.473983 0003 003a 64
E: 14718.473983 0003 001c 3
E: 14718.473983 0003 0030 210
E: 14718.473983 0003 0031 195
E: 14718.473983 0003 0018 67
E: 14718.473983 0000 0000 0
E: 14718.483775 0003 002f 0
E: 14718.483775 0003 003a 65
E: 14718.483775 0003 001c 4
E: 14718.483775 0003 002f 1
E: 14718.483775 0003 003a 62
E: 14718.483775 0003 001c 3
E: 14718.483775 0003 0018 65
E: 14718.483775 0000 0000 0
E: 14718.493535 0003 002f 0
E: 14718.493535 0003 003a 63
E: 14718.493535 0003 0031 195
E: 14718.493535 0003 002f 1
E: 14718.493535 0003 0035 1722
E: 14718.493535 0003 0036 781
E: 14718.493535 0003 003a 59
E: 14718.493535 0003 0018 63
E: 14718.493535 0000 0000 0
E: 14718.503309 0003 002f 0
E: 14718.503309 0003 003a 50
E: 14718.503309 0003 002f 1
E: 14718.503309 0003 0035 1719
E: 14718.503309 0003 0036 783
E: 14718.503309 0003 003a 49
E: 14718.503309 0003 0018 50
E: 14718.503309 0000 0000 0
E: 14718.513114 0003 001c 1
E: 14718.513114 0003 002f 0
E: 14718.513114 0003 0030 70
E: 14718.513114 0003 0031 65
E: 14718.513114 0003 002f 1
E: 14718.513114 0003 0030 70
E: 14718.513114 0003 0031 65
E: 14718.513114 0000 0000 0
E: 14718.522780 0003 002f 0
E: 14718.522780 0003 0039 -1
E: 14718.522780 0003 002f 1
E: 14718.522780 0003 0039 -1
E: 14718.522780 0001 014a 0
E: 14718.522780 0001 014d 0
E: 14718.522780 0003 0018 0
E: 14718.522780 0000 0000 0
E: 14718.523280 0003 002f 0
E: 14718.523280 0003 0039 -1
E: 14718.523280 0003 002f 1
E: 14718.523280 0003 0039 -1
E: 14718.523280 0003 002f 2
E: 14718.523280 0003 0039 -1
E: 14718.523280 0003 002f 3
E: 14718.523280 0003 0039 -1
E: 14718.523280 0003 002f 4
E: 14718.523280 0003 0039 -1
