# device: SynPS/2 Synaptics TouchPad
# bit: 0B 00 00 00 00 00 00 00
# key: 00 00 00 00 00 00 00 00 00 00 00 00 00 00 00 00 00 00 00 00 00 00 00 00 00 00 00 00 00 00 00 00 00 00 01 00 00 00 00 00 20 E5 00 00 00 00 00 00 00 00 00 00 00 00 00 00 00 00 00 00 00 00 00 00 00 00 00 00 00 00 00 00 00 00 00 00 00 00 00 00 00 00 00 00 00 00 00 00 00 00 00 00 00 00 00 00
# rel: 00 00 00 00 00 00 00 00
# abs: 03 00 00 11 00 80 60 06
# led: 00 00 00 00 00 00 00 00
# prp: 05 00 00 00 00 00 00 00
# absinfo: 0 1472 5472 0 0 55
# absinfo: 1 1408 4448 0 0 77
# absinfo: 24 0 255 0 0 0
# absinfo: 28 0 15 0 0 0
# absinfo: 47 0 1 0 0 0
# absinfo: 53 1472 5676 0 0 55
# absinfo: 54 1408 4755 0 0 77
# absinfo: 57 0 65535 0 0 0
# absinfo: 58 0 255 0 0 0
E: 90.251274 0003 002f 0
E: 90.251274 0003 0030 0
E: 90.251274 0003 0031 0
E: 90.251274 0003 0032 0
E: 90.251274 0003 0033 0
E: 90.251274 0003 0034 0
E: 90.251274 0003 0035 1824
E: 90.251274 0003 0036 4753
E: 90.251274 0003 0037 0
E: 90.251274 0003 0038 0
E: 90.251274 0003 0039 58
E: 90.251274 0003 003a 38
E: 90.251274 0003 003b 0
E: 90.251274 0003 002f 1
E: 90.251274 0003 0039 -1
E: 90.251274 0003 002f 0
E: 90.251274 0001 0145 1
E: 90.251274 0001 014a 1
E: 90.251274 0000 0000 0
E: 90.265078 0003 0035 1844
E: 90.265087 0003 003a 39
E: 90.265098 0003 0000 1844
E: 90.265103 0003 0018 39
E: 90.265111 0000 0000 0
E: 90.279939 0003 0035 1866
E: 90.279944 0003 0036 4754
E: 90.279948 0003 003a 40
E: 90.279958 0003 0000 1866
E: 90.279961 0003 0001 4754
E: 90.279965 0003 0018 40
E: 90.279973 0000 0000 0
E: 90.293781 0003 0035 1860
E: 90.293788 0003 0036 4753
E: 90.293793 0003 003a 43
E: 90.293805 0003 0000 1860
E: 90.293809 0003 0001 4753
E: 90.293814 0003 0018 43
E: 90.293824 0000 0000 0
E: 90.307630 0003 0035 1852
E: 90.307644 0003 0000 1852
E: 90.307656 0000 0000 0
E: 90.321490 0003 0035 1860
E: 90.321497 0003 003a 44
E: 90.321507 0003 0000 1860
E: 90.321513 0003 0018 44
E: 90.321521 0000 0000 0
E: 90.335357 0003 0035 1878
E: 90.335364 0003 0036 4754
E: 90.335369 0003 003a 45
E: 90.335382 0003 0000 1878
E: 90.335387 0003 0001 4754
E: 90.335392 0003 0018 45
E: 90.335403 0000 0000 0
E: 90.349163 0003 0035 1880
E: 90.349169 0003 0036 4753
E: 90.349174 0003 003a 46
E: 90.349185 0003 0000 1880
E: 90.349189 0003 0001 4753
E: 90.349194 0003 0018 46
E: 90.349204 0000 0000 0
E: 90.363069 0003 0035 1892
E: 90.363084 0003 0000 1892
E: 90.363095 0000 0000 0
E: 90.377937 0003 0035 1872
E: 90.377956 0003 0000 1872
E: 90.377970 0000 0000 0
E: 90.391800 0003 0035 1880
E: 90.391810 0003 003a 47
E: 90.391822 0003 0000 1880
E: 90.391829 0003 0018 47
E: 90.391839 0000 0000 0
E: 90.405637 0003 0035 1898
E: 90.405643 0003 0036 4754
E: 90.405654 0003 0000 1898
E: 90.405657 0003 0001 4754
E: 90.405667 0000 0000 0
E: 90.419504 0003 0035 1896
E: 90.419511 0003 0036 4753
E: 90.419525 0003 0000 1896
E: 90.419529 0003 0001 4753
E: 90.419542 0000 0000 0
E: 90.433361 0003 0035 1860
E: 90.433380 0003 0000 1860
E: 90.433395 0000 0000 0
E: 90.447210 0003 0035 1892
E: 90.447218 0003 003a 48
E: 90.447227 0003 0000 1892
E: 90.447233 0003 0018 48
E: 90.447241 0000 0000 0
E: 90.461082 0003 0035 1896
E: 90.461089 0003 003a 47
E: 90.461098 0003 0000 1896
E: 90.461103 0003 0018 47
E: 90.461111 0000 0000 0
E: 90.475944 0003 0035 1872
E: 90.475961 0003 0000 1872
E: 90.475975 0000 0000 0
E: 90.489790 0003 0035 1884
E: 90.489810 0003 0000 1884
E: 90.489825 0000 0000 0
E: 90.503645 0003 0035 1906
E: 90.503651 0003 0036 4754
E: 90.503665 0003 0000 1906
E: 90.503670 0003 0001 4754
E: 90.503682 0000 0000 0
E: 90.517486 0003 0035 1896
E: 90.517493 0003 0036 4753
E: 90.517498 0003 003a 48
E: 90.517510 0003 0000 1896
E: 90.517514 0003 0001 4753
E: 90.517519 0003 0018 48
E: 90.517528 0000 0000 0
E: 90.531327 0003 0035 1872
E: 90.531345 0003 0000 1872
E: 90.531360 0000 0000 0
E: 90.545173 0003 0035 1888
E: 90.545187 0003 0000 1888
E: 90.545199 0000 0000 0
E: 90.559026 0003 0035 1884
E: 90.559043 0003 0000 1884
E: 90.559058 0000 0000 0
E: 90.572904 0003 0035 1892
E: 90.572922 0003 0000 1892
E: 90.572937 0000 0000 0
E: 90.629636 0003 0035 1900
E: 90.629650 0003 0000 1900
E: 90.629661 0000 0000 0
E: 90.643482 0003 0035 1922
E: 90.643489 0003 0036 4754
E: 90.643503 0003 0000 1922
E: 90.643508 0003 0001 4754
E: 90.643520 0000 0000 0
E: 90.657361 0003 0035 1906
E: 90.657378 0003 0000 1906
E: 90.657393 0000 0000 0
E: 90.671191 0003 0035 1932
E: 90.671196 0003 0036 4753
E: 90.671207 0003 0000 1932
E: 90.671211 0003 0001 4753
E: 90.671221 0000 0000 0
E: 90.685103 0003 0035 1906
E: 90.685109 0003 0036 4754
E: 90.685114 0003 003a 49
E: 90.685125 0003 0000 1906
E: 90.685130 0003 0001 4754
E: 90.685134 0003 0018 49
E: 90.685144 0000 0000 0
E: 90.698941 0003 0035 1892
E: 90.698948 0003 0036 4753
E: 90.698963 0003 0000 1892
E: 90.698967 0003 0001 4753
E: 90.698980 0000 0000 0
E: 90.712763 0003 0035 1906
E: 90.712768 0003 0036 4754
E: 90.712771 0003 003a 48
E: 90.712780 0003 0000 1906
E: 90.712784 0003 0001 4754
E: 90.712788 0003 0018 48
E: 90.712795 0000 0000 0
E: 90.727626 0003 0035 1918
E: 90.727640 0003 0000 1918
E: 90.727651 0000 0000 0
E: 90.741610 0003 0035 1906
E: 90.741624 0003 0000 1906
E: 90.741635 0000 0000 0
E: 90.755707 0003 0035 1874
E: 90.755724 0003 0000 1874
E: 90.755739 0000 0000 0
E: 90.769600 0003 0035 1922
E: 90.769618 0003 0000 1922
E: 90.769632 0000 0000 0
E: 90.783468 0003 0035 1892
E: 90.783475 0003 0036 4753
E: 90.783489 0003 0000 1892
E: 90.783493 0003 0001 4753
E: 90.783505 0000 0000 0
E: 90.797299 0003 0035 1896
E: 90.797305 0003 003a 49
E: 90.797315 0003 0000 1896
E: 90.797320 0003 0018 49
E: 90.797328 0000 0000 0
E: 90.811164 0003 0035 1906
E: 90.811169 0003 0036 4754
E: 90.811172 0003 003a 48
E: 90.811180 0003 0000 1906
E: 90.811183 0003 0001 4754
E: 90.811186 0003 0018 48
E: 90.811193 0000 0000 0
E: 90.825009 0003 0035 1918
E: 90.825013 0003 003a 49
E: 90.825020 0003 0000 1918
E: 90.825023 0003 0018 49
E: 90.825028 0000 0000 0
E: 90.838905 0003 0035 1896
E: 90.838910 0003 0036 4753
E: 90.838914 0003 003a 48
E: 90.838924 0003 0000 1896
E: 90.838927 0003 0001 4753
E: 90.838931 0003 0018 48
E: 90.838939 0000 0000 0
E: 90.852762 0003 0035 1912
E: 90.852769 0003 003a 49
E: 90.852778 0003 0000 1912
E: 90.852783 0003 0018 49
E: 90.852791 0000 0000 0
E: 90.866939 0003 003a 48
E: 90.866952 0003 0018 48
E: 90.866959 0000 0000 0
E: 90.896791 0003 0035 1889
E: 90.896797 0003 0036 4755
E: 90.896807 0003 0000 1889
E: 90.896811 0003 0001 4755
E: 90.896817 0001 0145 0
E: 90.896820 0001 014d 1
E: 90.896826 0000 0000 0
E: 90.925482 0003 0035 1897
E: 90.925488 0003 003a 50
E: 90.925494 0003 002f 1
E: 90.925496 0003 0039 59
E: 90.925501 0003 0035 4668
E: 90.925504 0003 0036 3108
E: 90.925508 0003 003a 52
E: 90.925514 0003 0000 1897
E: 90.925519 0003 0018 50
E: 90.925528 0000 0000 0
E: 90.953374 0003 0035 4676
E: 90.953379 0003 0036 3140
E: 90.953384 0003 003a 60
E: 90.953404 0001 0110 1
E: 90.953410 0000 0000 0
E: 90.981526 0003 002f 0
E: 90.981529 0003 0035 1889
E: 90.981534 0003 003a 48
E: 90.981542 0003 002f 1
E: 90.981544 0003 0035 4680
E: 90.981548 0003 0036 3180
E: 90.981552 0003 003a 68
E: 90.981557 0003 0000 1889
E: 90.981562 0003 0018 48
E: 90.981574 0000 0000 0
E: 91.010048 0003 002f 0
E: 91.010051 0003 0035 1873
E: 91.010057 0003 003a 50
E: 91.010065 0003 002f 1
E: 91.010067 0003 0035 4688
E: 91.010071 0003 0036 3196
E: 91.010074 0003 003a 72
E: 91.010080 0003 0000 1873
E: 91.010085 0003 0018 50
E: 91.010096 0000 0000 0
E: 91.037466 0003 002f 0
E: 91.037470 0003 0035 1881
E: 91.037482 0003 002f 1
E: 91.037484 0003 0036 3208
E: 91.037491 0003 0000 1881
E: 91.037503 0000 0000 0
E: 91.065338 0003 0035 4680
E: 91.065343 0003 0036 3188
E: 91.065363 0000 0000 0
E: 91.092030 0003 002f 0
E: 91.092034 0003 0035 1901
E: 91.092042 0003 003a 48
E: 91.092053 0003 002f 1
E: 91.092056 0003 0035 4664
E: 91.092061 0003 0036 3124
E: 91.092065 0003 003a 64
E: 91.092072 0003 0000 1901
E: 91.092078 0003 0018 48
E: 91.092088 0001 0110 0
E: 91.092092 0000 0000 0
E: 91.131552 0003 002f 0
E: 91.131556 0003 0035 1886
E: 91.131559 0003 0036 4754
E: 91.131562 0003 003a 49
E: 91.131568 0003 002f 1
E: 91.131571 0003 0039 -1
E: 91.131577 0003 0000 1886
E: 91.131580 0003 0001 4754
E: 91.131583 0003 0018 49
E: 91.131587 0001 0145 1
E: 91.131593 0001 014d 0
E: 91.131597 0000 0000 0
E: 91.145363 0003 002f 0
E: 91.145371 0003 0035 1908
E: 91.145373 0003 0036 4753
E: 91.145380 0003 0000 1908
E: 91.145383 0003 0001 4753
E: 91.145389 0000 0000 0
E: 91.159423 0003 0035 1896
E: 91.159436 0003 0000 1896
E: 91.159447 0000 0000 0
E: 91.173700 0003 0035 1886
E: 91.173705 0003 0036 4754
E: 91.173716 0003 0000 1886
E: 91.173719 0003 0001 4754
E: 91.173729 0000 0000 0
E: 91.187944 0003 0035 1908
E: 91.187949 0003 0036 4753
E: 91.187953 0003 003a 48
E: 91.187962 0003 0000 1908
E: 91.187965 0003 0001 4753
E: 91.187969 0003 0018 48
E: 91.187977 0000 0000 0
E: 91.202192 0003 0035 1896
E: 91.202198 0003 003a 49
E: 91.202207 0003 0000 1896
E: 91.202212 0003 0018 49
E: 91.202220 0000 0000 0
E: 91.216010 0003 0035 1886
E: 91.216015 0003 0036 4754
E: 91.216026 0003 0000 1886
E: 91.216029 0003 0001 4754
E: 91.216039 0000 0000 0
E: 91.238422 0003 0035 1906
E: 91.238435 0003 0000 1906
E: 91.238446 0000 0000 0
E: 91.257973 0003 0035 1896
E: 91.257980 0003 0036 4753
E: 91.257994 0003 0000 1896
E: 91.257998 0003 0001 4753
E: 91.258012 0000 0000 0
E: 91.270791 0003 0035 1900
E: 91.270803 0003 0000 1900
E: 91.270812 0000 0000 0
E: 91.284689 0003 0035 1892
E: 91.284707 0003 0000 1892
E: 91.284722 0000 0000 0
E: 91.327175 0003 0035 1874
E: 91.327180 0003 0036 4754
E: 91.327191 0003 0000 1874
E: 91.327195 0003 0001 4754
E: 91.327204 0000 0000 0
E: 91.341033 0003 0035 1892
E: 91.341039 0003 0036 4753
E: 91.341053 0003 0000 1892
E: 91.341057 0003 0001 4753
E: 91.341069 0000 0000 0
E: 91.355088 0003 0035 1906
E: 91.355093 0003 0036 4754
E: 91.355104 0003 0000 1906
E: 91.355108 0003 0001 4754
E: 91.355118 0000 0000 0
E: 91.368914 0003 0035 1900
E: 91.368919 0003 0036 4753
E: 91.368929 0003 0000 1900
E: 91.368933 0003 0001 4753
E: 91.368942 0000 0000 0
E: 91.382785 0003 0035 1896
E: 91.382803 0003 0000 1896
E: 91.382818 0000 0000 0
E: 91.410482 0003 0035 1900
E: 91.410496 0003 0000 1900
E: 91.410507 0000 0000 0
E: 91.424352 0003 0035 1886
E: 91.424357 0003 0036 4754
E: 91.424368 0003 0000 1886
E: 91.424372 0003 0001 4754
E: 91.424381 0000 0000 0
E: 91.438188 0003 0035 1908
E: 91.438193 0003 0036 4753
E: 91.438204 0003 0000 1908
E: 91.438207 0003 0001 4753
E: 91.438217 0000 0000 0
E: 91.452021 0003 0035 1886
E: 91.452028 0003 0036 4754
E: 91.452044 0003 0000 1886
E: 91.452048 0003 0001 4754
E: 91.452059 0000 0000 0
E: 91.465864 0003 0035 1888
E: 91.465868 0003 0036 4753
E: 91.465875 0003 0000 1888
E: 91.465877 0003 0001 4753
E: 91.465884 0000 0000 0
E: 91.479752 0003 0035 1886
E: 91.479756 0003 0036 4754
E: 91.479767 0003 0000 1886
E: 91.479770 0003 0001 4754
E: 91.479779 0000 0000 0
E: 91.493618 0003 0035 1908
E: 91.493623 0003 0036 4753
E: 91.493626 0003 003a 48
E: 91.493634 0003 0000 1908
E: 91.493637 0003 0001 4753
E: 91.493641 0003 0018 48
E: 91.493647 0000 0000 0
E: 91.507475 0003 0035 1888
E: 91.507481 0003 003a 49
E: 91.507489 0003 0000 1888
E: 91.507495 0003 0018 49
E: 91.507502 0000 0000 0
E: 91.521345 0003 0035 1896
E: 91.521350 0003 003a 48
E: 91.521359 0003 0000 1896
E: 91.521364 0003 0018 48
E: 91.521374 0000 0000 0
E: 91.535196 0003 0035 1886
E: 91.535200 0003 0036 4754
E: 91.535209 0003 0000 1886
E: 91.535212 0003 0001 4754
E: 91.535220 0000 0000 0
E: 91.549053 0003 0035 1888
E: 91.549057 0003 0036 4753
E: 91.549070 0003 0000 1888
E: 91.549074 0003 0001 4753
E: 91.549086 0000 0000 0
E: 91.562902 0003 0035 1906
E: 91.562906 0003 0036 4754
E: 91.562916 0003 0000 1906
E: 91.562920 0003 0001 4754
E: 91.562929 0000 0000 0
E: 91.591647 0003 0035 1874
E: 91.591659 0003 0000 1874
E: 91.591670 0000 0000 0
E: 91.621366 0003 0035 1905
E: 91.621371 0003 0036 4755
E: 91.621380 0003 0000 1905
E: 91.621384 0003 0001 4755
E: 91.621389 0001 0145 0
E: 91.621392 0001 014d 1
E: 91.621397 0000 0000 0
E: 91.649083 0003 0035 1901
E: 91.649092 0003 002f 1
E: 91.649094 0003 0039 60
E: 91.649099 0003 0035 3824
E: 91.649103 0003 0036 3552
E: 91.649106 0003 003a 52
E: 91.649112 0003 0000 1901
E: 91.649123 0000 0000 0
E: 91.676786 0003 002f 0
E: 91.676789 0003 0035 1905
E: 91.676796 0003 002f 1
E: 91.676798 0003 0035 3820
E: 91.676801 0003 0036 3424
E: 91.676803 0003 003a 56
E: 91.676808 0003 0000 1905
E: 91.676816 0000 0000 0
E: 91.704497 0003 002f 0
E: 91.704500 0003 0035 1885
E: 91.704512 0003 002f 1
E: 91.704514 0003 0035 3916
E: 91.704518 0003 0036 3228
E: 91.704525 0003 0000 1885
E: 91.704537 0000 0000 0
E: 91.732217 0003 002f 0
E: 91.732220 0003 0035 1905
E: 91.732232 0003 002f 1
E: 91.732234 0003 0035 4056
E: 91.732238 0003 0036 3032
E: 91.732242 0003 003a 52
E: 91.732248 0003 0000 1905
E: 91.732260 0000 0000 0
E: 91.759911 0003 002f 0
E: 91.759914 0003 0035 1913
E: 91.759921 0003 002f 1
E: 91.759923 0003 0035 4164
E: 91.759926 0003 0036 2948
E: 91.759928 0003 003a 48
E: 91.759932 0003 0000 1913
E: 91.759940 0000 0000 0
E: 91.787629 0003 002f 0
E: 91.787632 0003 0035 1881
E: 91.787644 0003 002f 1
E: 91.787646 0003 0035 4276
E: 91.787649 0003 0036 2884
E: 91.787657 0003 0000 1881
E: 91.787669 0000 0000 0
E: 91.816298 0003 0035 4332
E: 91.816302 0003 0036 2920
E: 91.816313 0000 0000 0
E: 91.844037 0003 002f 0
E: 91.844041 0003 0035 1897
E: 91.844053 0003 002f 1
E: 91.844055 0003 0035 4348
E: 91.844059 0003 0036 2972
E: 91.844066 0003 0000 1897
E: 91.844079 0000 0000 0
E: 91.871232 0003 002f 0
E: 91.871235 0003 0035 1901
E: 91.871248 0003 002f 1
E: 91.871250 0003 0036 2988
E: 91.871257 0003 0000 1901
E: 91.871269 0000 0000 0
E: 91.911082 0003 002f 0
E: 91.911085 0003 0035 1892
E: 91.911089 0003 0036 4753
E: 91.911096 0003 002f 1
E: 91.911098 0003 0039 -1
E: 91.911104 0003 0000 1892
E: 91.911107 0003 0001 4753
E: 91.911113 0001 0145 1
E: 91.911117 0001 014d 0
E: 91.911122 0000 0000 0
E: 91.925164 0003 002f 0
E: 91.925168 0003 0035 1896
E: 91.925175 0003 003a 49
E: 91.925187 0003 0000 1896
E: 91.925193 0003 0018 49
E: 91.925201 0000 0000 0
E: 91.939055 0003 0035 1900
E: 91.939063 0003 003a 48
E: 91.939072 0003 0000 1900
E: 91.939077 0003 0018 48
E: 91.939085 0000 0000 0
E: 91.952890 0003 0035 1902
E: 91.952895 0003 0036 4754
E: 91.952906 0003 0000 1902
E: 91.952909 0003 0001 4754
E: 91.952919 0000 0000 0
E: 91.966758 0003 0035 1872
E: 91.966763 0003 0036 4753
E: 91.966774 0003 0000 1872
E: 91.966777 0003 0001 4753
E: 91.966787 0000 0000 0
E: 91.980596 0003 0035 1886
E: 91.980600 0003 0036 4754
E: 91.980607 0003 0000 1886
E: 91.980609 0003 0001 4754
E: 91.980615 0000 0000 0
E: 91.994476 0003 0035 1892
E: 91.994481 0003 0036 4753
E: 91.994491 0003 0000 1892
E: 91.994495 0003 0001 4753
E: 91.994504 0000 0000 0
E: 92.008347 0003 0035 1882
E: 92.008351 0003 0036 4754
E: 92.008354 0003 003a 49
E: 92.008362 0003 0000 1882
E: 92.008365 0003 0001 4754
E: 92.008368 0003 0018 49
E: 92.008374 0000 0000 0
E: 92.022210 0003 0035 1888
E: 92.022214 0003 0036 4753
E: 92.022218 0003 003a 48
E: 92.022225 0003 0000 1888
E: 92.022228 0003 0001 4753
E: 92.022231 0003 0018 48
E: 92.022238 0000 0000 0
E: 92.036243 0003 0035 1872
E: 92.036259 0003 0000 1872
E: 92.036273 0000 0000 0
E: 92.050086 0003 0035 1860
E: 92.050099 0003 0000 1860
E: 92.050110 0000 0000 0
E: 92.063942 0003 0035 1902
E: 92.063948 0003 0036 4754
E: 92.063956 0003 0000 1902
E: 92.063959 0003 0001 4754
E: 92.063967 0000 0000 0
E: 92.077807 0003 0035 1892
E: 92.077812 0003 0036 4753
E: 92.077822 0003 0000 1892
E: 92.077826 0003 0001 4753
E: 92.077835 0000 0000 0
E: 92.091656 0003 0035 1906
E: 92.091661 0003 0036 4754
E: 92.091668 0003 0000 1906
E: 92.091671 0003 0001 4754
E: 92.091677 0000 0000 0
E: 92.105528 0003 0035 1896
E: 92.105532 0003 0036 4753
E: 92.105539 0003 0000 1896
E: 92.105542 0003 0001 4753
E: 92.105548 0000 0000 0
E: 92.119411 0003 0035 1872
E: 92.119425 0003 0000 1872
E: 92.119436 0000 0000 0
E: 92.133275 0003 0035 1888
E: 92.133288 0003 0000 1888
E: 92.133299 0000 0000 0
E: 92.147126 0003 0035 1896
E: 92.147140 0003 0000 1896
E: 92.147150 0000 0000 0
E: 92.160992 0003 0035 1908
E: 92.161004 0003 0000 1908
E: 92.161016 0000 0000 0
E: 92.190681 0003 0035 1901
E: 92.190686 0003 0036 4755
E: 92.190695 0003 0000 1901
E: 92.190698 0003 0001 4755
E: 92.190704 0001 0145 0
E: 92.190707 0001 014d 1
E: 92.190712 0000 0000 0
E: 92.219380 0003 0035 1909
E: 92.219388 0003 002f 1
E: 92.219389 0003 0039 61
E: 92.219393 0003 0035 4324
E: 92.219396 0003 0036 3416
E: 92.219398 0003 003a 56
E: 92.219402 0003 0000 1909
E: 92.219410 0000 0000 0
E: 92.247102 0003 002f 0
E: 92.247105 0003 0035 1889
E: 92.247114 0003 002f 1
E: 92.247116 0003 0035 4328
E: 92.247119 0003 0036 3424
E: 92.247122 0003 003a 60
E: 92.247126 0003 0000 1889
E: 92.247136 0000 0000 0
E: 92.274827 0003 002f 0
E: 92.274831 0003 0035 1897
E: 92.274845 0003 002f 1
E: 92.274848 0003 0035 4320
E: 92.274852 0003 0036 3436
E: 92.274856 0003 003a 64
E: 92.274863 0003 0000 1897
E: 92.274879 0000 0000 0
E: 92.302535 0003 002f 0
E: 92.302538 0003 0035 1885
E: 92.302550 0003 002f 1
E: 92.302552 0003 0035 4316
E: 92.302560 0003 0000 1885
E: 92.302573 0001 0110 1
E: 92.302577 0000 0000 0
E: 92.330239 0003 002f 0
E: 92.330243 0003 0035 1877
E: 92.330248 0003 003a 46
E: 92.330257 0003 002f 1
E: 92.330259 0003 0035 4312
E: 92.330262 0003 0036 3444
E: 92.330266 0003 003a 68
E: 92.330272 0003 0000 1877
E: 92.330277 0003 0018 46
E: 92.330288 0000 0000 0
E: 92.358198 0003 002f 0
E: 92.358201 0003 0035 1869
E: 92.358209 0003 002f 1
E: 92.358210 0003 0035 4328
E: 92.358213 0003 0036 3452
E: 92.358218 0003 0000 1869
E: 92.358227 0000 0000 0
E: 92.385916 0003 002f 0
E: 92.385920 0003 0035 1893
E: 92.385927 0003 002f 1
E: 92.385929 0003 0035 4320
E: 92.385932 0003 0036 3460
E: 92.385937 0003 0000 1893
E: 92.385946 0000 0000 0
E: 92.413640 0003 002f 0
E: 92.413644 0003 0035 1901
E: 92.413649 0003 003a 48
E: 92.413656 0003 002f 1
E: 92.413658 0003 0035 4316
E: 92.413661 0003 0036 3448
E: 92.413665 0003 003a 64
E: 92.413670 0003 0000 1901
E: 92.413675 0003 0018 48
E: 92.413682 0001 0110 0
E: 92.413685 0000 0000 0
E: 92.441516 0003 002f 0
E: 92.441519 0003 0035 1913
E: 92.441528 0003 002f 1
E: 92.441530 0003 0036 3392
E: 92.441532 0003 003a 60
E: 92.441537 0003 0000 1913
E: 92.441545 0000 0000 0
E: 92.466212 0003 002f 0
E: 92.466215 0003 0035 1896
E: 92.466219 0003 0036 4753
E: 92.466226 0003 002f 1
E: 92.466228 0003 0039 -1
E: 92.466234 0003 0000 1896
E: 92.466237 0003 0001 4753
E: 92.466242 0001 0145 1
E: 92.466246 0001 014d 0
E: 92.466251 0000 0000 0
E: 92.480072 0003 002f 0
E: 92.480077 0003 0035 1888
E: 92.480093 0003 0000 1888
E: 92.480107 0000 0000 0
E: 92.493909 0003 0035 1886
E: 92.493915 0003 0036 4754
E: 92.493919 0003 003a 47
E: 92.493928 0003 0000 1886
E: 92.493931 0003 0001 4754
E: 92.493935 0003 0018 47
E: 92.493943 0000 0000 0
E: 92.525591 0003 0035 1884
E: 92.525596 0003 0036 4753
E: 92.525599 0003 003a 48
E: 92.525607 0003 0000 1884
E: 92.525610 0003 0001 4753
E: 92.525613 0003 0018 48
E: 92.525620 0000 0000 0
E: 92.534416 0003 0035 1898
E: 92.534420 0003 0036 4754
E: 92.534429 0003 0000 1898
E: 92.534432 0003 0001 4754
E: 92.534441 0000 0000 0
E: 92.564182 0003 0035 1908
E: 92.564187 0003 0036 4753
E: 92.564189 0003 003a 47
E: 92.564196 0003 0000 1908
E: 92.564198 0003 0001 4753
E: 92.564201 0003 0018 47
E: 92.564207 0000 0000 0
E: 92.578068 0003 0035 1886
E: 92.578074 0003 0036 4754
E: 92.578077 0003 003a 48
E: 92.578085 0003 0000 1886
E: 92.578089 0003 0001 4754
E: 92.578092 0003 0018 48
E: 92.578099 0000 0000 0
E: 92.591915 0003 0035 1910
E: 92.591926 0003 0000 1910
E: 92.591935 0000 0000 0
E: 92.605742 0003 0035 1884
E: 92.605745 0003 0036 4753
E: 92.605748 0003 003a 47
E: 92.605754 0003 0000 1884
E: 92.605757 0003 0001 4753
E: 92.605759 0003 0018 47
E: 92.605764 0000 0000 0
E: 92.619601 0003 0035 1892
E: 92.619609 0003 003a 48
E: 92.619618 0003 0000 1892
E: 92.619623 0003 0018 48
E: 92.619631 0000 0000 0
E: 92.633447 0003 0035 1902
E: 92.633451 0003 0036 4754
E: 92.633458 0003 0000 1902
E: 92.633461 0003 0001 4754
E: 92.633467 0000 0000 0
E: 92.661151 0003 0035 1886
E: 92.661165 0003 0000 1886
E: 92.661176 0000 0000 0
E: 92.675023 0003 0035 1902
E: 92.675039 0003 0000 1902
E: 92.675053 0000 0000 0
E: 92.702745 0003 0035 1900
E: 92.702749 0003 0036 4753
E: 92.702756 0003 0000 1900
E: 92.702758 0003 0001 4753
E: 92.702765 0000 0000 0
E: 92.716608 0003 0035 1902
E: 92.716613 0003 0036 4754
E: 92.716624 0003 0000 1902
E: 92.716628 0003 0001 4754
E: 92.716638 0000 0000 0
E: 92.744315 0003 0035 1890
E: 92.744330 0003 0000 1890
E: 92.744341 0000 0000 0
E: 92.758167 0003 0035 1884
E: 92.758171 0003 0036 4753
E: 92.758180 0003 0000 1884
E: 92.758183 0003 0001 4753
E: 92.758191 0000 0000 0
E: 92.772026 0003 0035 1886
E: 92.772031 0003 0036 4754
E: 92.772046 0003 0000 1886
E: 92.772051 0003 0001 4754
E: 92.772062 0000 0000 0
E: 92.785902 0003 0035 1902
E: 92.785914 0003 0000 1902
E: 92.785923 0000 0000 0
E: 92.799740 0003 0035 1898
E: 92.799754 0003 0000 1898
E: 92.799766 0000 0000 0
E: 92.813605 0003 0035 1896
E: 92.813610 0003 0036 4753
E: 92.813621 0003 0000 1896
E: 92.813625 0003 0001 4753
E: 92.813635 0000 0000 0
E: 92.827455 0003 0035 1910
E: 92.827459 0003 0036 4754
E: 92.827468 0003 0000 1910
E: 92.827471 0003 0001 4754
E: 92.827479 0000 0000 0
E: 92.841504 0003 0035 1886
E: 92.841518 0003 0000 1886
E: 92.841530 0000 0000 0
E: 92.855308 0003 0035 1892
E: 92.855313 0003 0036 4753
E: 92.855322 0003 0000 1892
E: 92.855325 0003 0001 4753
E: 92.855333 0000 0000 0
E: 92.869226 0003 0035 1898
E: 92.869231 0003 0036 4754
E: 92.869242 0003 0000 1898
E: 92.869245 0003 0001 4754
E: 92.869255 0000 0000 0
E: 92.883091 0003 0035 1890
E: 92.883098 0003 003a 47
E: 92.883108 0003 0000 1890
E: 92.883113 0003 0018 47
E: 92.883121 0000 0000 0
E: 92.896927 0003 0035 1884
E: 92.896932 0003 0036 4753
E: 92.896943 0003 0000 1884
E: 92.896946 0003 0001 4753
E: 92.896956 0000 0000 0
E: 92.910793 0003 0035 1898
E: 92.910797 0003 0036 4754
E: 92.910800 0003 003a 48
E: 92.910808 0003 0000 1898
E: 92.910811 0003 0001 4754
E: 92.910814 0003 0018 48
E: 92.910821 0000 0000 0
E: 92.924670 0003 0035 1896
E: 92.924675 0003 0036 4753
E: 92.924686 0003 0000 1896
E: 92.924690 0003 0001 4753
E: 92.924699 0000 0000 0
E: 92.938534 0003 0035 1898
E: 92.938540 0003 0036 4754
E: 92.938551 0003 0000 1898
E: 92.938555 0003 0001 4754
E: 92.938564 0000 0000 0
E: 92.952381 0003 0035 1892
E: 92.952387 0003 0036 4753
E: 92.952392 0003 003a 47
E: 92.952404 0003 0000 1892
E: 92.952408 0003 0001 4753
E: 92.952413 0003 0018 47
E: 92.952423 0000 0000 0
E: 92.966215 0003 0035 1896
E: 92.966224 0003 0000 1896
E: 92.966231 0000 0000 0
E: 92.980093 0003 0035 1898
E: 92.980098 0003 0036 4754
E: 92.980101 0003 003a 48
E: 92.980109 0003 0000 1898
E: 92.980112 0003 0001 4754
E: 92.980115 0003 0018 48
E: 92.980122 0000 0000 0
E: 92.993962 0003 0035 1890
E: 92.993973 0003 0000 1890
E: 92.993982 0000 0000 0
E: 93.007832 0003 0035 1892
E: 93.007837 0003 0036 4753
E: 93.007848 0003 0000 1892
E: 93.007851 0003 0001 4753
E: 93.007861 0000 0000 0
E: 93.037801 0003 0035 1885
E: 93.037806 0003 0036 4755
E: 93.037817 0003 0000 1885
E: 93.037821 0003 0001 4755
E: 93.037827 0001 0145 0
E: 93.037831 0001 014d 1
E: 93.037837 0000 0000 0
E: 93.065659 0003 002f 1
E: 93.065663 0003 0039 62
E: 93.065670 0003 0035 4040
E: 93.065675 0003 0036 3368
E: 93.065680 0003 003a 52
E: 93.065700 0000 0000 0
E: 93.093392 0003 002f 0
E: 93.093396 0003 0035 1893
E: 93.093406 0003 002f 1
E: 93.093408 0003 0035 3996
E: 93.093411 0003 0036 3328
E: 93.093418 0003 0000 1893
E: 93.093428 0000 0000 0
E: 93.122125 0003 002f 0
E: 93.122128 0003 0035 1885
E: 93.122138 0003 002f 1
E: 93.122140 0003 0035 3964
E: 93.122143 0003 0036 3200
E: 93.122149 0003 0000 1885
E: 93.122159 0000 0000 0
E: 93.149838 0003 002f 0
E: 93.149842 0003 0035 1897
E: 93.149851 0003 002f 1
E: 93.149853 0003 0035 3948
E: 93.149856 0003 0036 3056
E: 93.149863 0003 0000 1897
E: 93.149873 0000 0000 0
E: 93.177537 0003 002f 0
E: 93.177541 0003 0035 1873
E: 93.177553 0003 002f 1
E: 93.177555 0003 0035 3956
E: 93.177559 0003 0036 2868
E: 93.177565 0003 0000 1873
E: 93.177577 0000 0000 0
E: 93.205244 0003 002f 0
E: 93.205248 0003 0035 1897
E: 93.205259 0003 002f 1
E: 93.205261 0003 0035 3952
E: 93.205265 0003 0036 2788
E: 93.205272 0003 0000 1897
E: 93.205284 0000 0000 0
E: 93.232967 0003 002f 0
E: 93.232970 0003 0035 1885
E: 93.232982 0003 002f 1
E: 93.232984 0003 0035 3956
E: 93.232987 0003 0036 2748
E: 93.232994 0003 0000 1885
E: 93.233008 0000 0000 0
E: 93.260653 0003 002f 0
E: 93.260656 0003 0035 1889
E: 93.260665 0003 002f 1
E: 93.260666 0003 0036 2728
E: 93.260671 0003 0000 1889
E: 93.260680 0000 0000 0
E: 93.288383 0003 002f 0
E: 93.288387 0003 0035 1893
E: 93.288400 0003 002f 1
E: 93.288402 0003 0036 2724
E: 93.288409 0003 0000 1893
E: 93.288421 0000 0000 0
E: 93.316098 0003 0035 3952
E: 93.316104 0003 0036 2732
E: 93.316123 0000 0000 0
E: 93.343820 0003 0036 2736
E: 93.343838 0000 0000 0
E: 93.383343 0003 002f 0
E: 93.383347 0003 0035 1888
E: 93.383350 0003 0036 4753
E: 93.383354 0003 003a 47
E: 93.383359 0003 002f 1
E: 93.383361 0003 0039 -1
E: 93.383367 0003 0000 1888
E: 93.383371 0003 0001 4753
E: 93.383374 0003 0018 47
E: 93.383378 0001 0145 1
E: 93.383382 0001 014d 0
E: 93.383387 0000 0000 0
E: 93.397207 0003 002f 0
E: 93.397211 0003 0035 1882
E: 93.397214 0003 0036 4754
E: 93.397225 0003 0000 1882
E: 93.397229 0003 0001 4754
E: 93.397238 0000 0000 0
E: 93.411046 0003 0035 1886
E: 93.411055 0003 0000 1886
E: 93.411062 0000 0000 0
E: 93.424902 0003 0035 1882
E: 93.424907 0003 003a 48
E: 93.424913 0003 0000 1882
E: 93.424916 0003 0018 48
E: 93.424922 0000 0000 0
E: 93.438770 0003 0035 1892
E: 93.438775 0003 0036 4753
E: 93.438786 0003 0000 1892
E: 93.438789 0003 0001 4753
E: 93.438799 0000 0000 0
E: 93.466488 0003 0035 1898
E: 93.466493 0003 0036 4754
E: 93.466504 0003 0000 1898
E: 93.466507 0003 0001 4754
E: 93.466517 0000 0000 0
E: 93.480346 0003 0035 1884
E: 93.480351 0003 0036 4753
E: 93.480360 0003 0000 1884
E: 93.480363 0003 0001 4753
E: 93.480371 0000 0000 0
E: 93.494197 0003 0035 1896
E: 93.494202 0003 003a 47
E: 93.494208 0003 0000 1896
E: 93.494212 0003 0018 47
E: 93.494217 0000 0000 0
E: 93.523924 0003 0035 1889
E: 93.523929 0003 0036 4755
E: 93.523933 0003 003a 48
E: 93.523942 0003 0000 1889
E: 93.523945 0003 0001 4755
E: 93.523949 0003 0018 48
E: 93.523953 0001 0145 0
E: 93.523957 0001 014d 1
E: 93.523963 0000 0000 0
E: 93.552607 0003 0035 1877
E: 93.552617 0003 002f 1
E: 93.552619 0003 0039 63
E: 93.552624 0003 0035 4024
E: 93.552628 0003 0036 3344
E: 93.552631 0003 003a 64
E: 93.552637 0003 0000 1877
E: 93.552649 0001 0110 1
E: 93.552653 0000 0000 0
E: 93.580323 0003 002f 0
E: 93.580327 0003 0035 1881
E: 93.580332 0003 003a 46
E: 93.580340 0003 002f 1
E: 93.580342 0003 0035 4032
E: 93.580346 0003 0036 3356
E: 93.580349 0003 003a 68
E: 93.580355 0003 0000 1881
E: 93.580360 0003 0018 46
E: 93.580371 0000 0000 0
E: 93.608050 0003 002f 0
E: 93.608054 0003 0035 1861
E: 93.608065 0003 002f 1
E: 93.608067 0003 0035 4024
E: 93.608071 0003 0036 3352
E: 93.608075 0003 003a 72
E: 93.608080 0003 0000 1861
E: 93.608095 0000 0000 0
E: 93.635779 0003 002f 0
E: 93.635784 0003 0035 1877
E: 93.635793 0003 002f 1
E: 93.635795 0003 0035 4016
E: 93.635799 0003 0036 3344
E: 93.635802 0003 003a 68
E: 93.635807 0003 0000 1877
E: 93.635820 0000 0000 0
E: 93.663464 0003 002f 0
E: 93.663468 0003 0035 1885
E: 93.663473 0003 003a 48
E: 93.663482 0003 002f 1
E: 93.663484 0003 0035 4004
E: 93.663487 0003 0036 3320
E: 93.663495 0003 0000 1885
E: 93.663500 0003 0018 48
E: 93.663509 0001 0110 0
E: 93.663512 0000 0000 0
E: 93.691195 0003 002f 0
E: 93.691201 0003 0035 1881
E: 93.691216 0003 002f 1
E: 93.691219 0003 0035 4000
E: 93.691225 0003 0036 3268
E: 93.691230 0003 003a 60
E: 93.691238 0003 0000 1881
E: 93.691254 0000 0000 0
E: 93.716101 0003 002f 0
E: 93.716105 0003 0035 1872
E: 93.716109 0003 0036 4753
E: 93.716119 0003 002f 1
E: 93.716121 0003 0039 -1
E: 93.716128 0003 0000 1872
E: 93.716131 0003 0001 4753
E: 93.716137 0001 0145 1
E: 93.716142 0001 014d 0
E: 93.716147 0000 0000 0
E: 93.730139 0003 002f 0
E: 93.730143 0003 0035 1892
E: 93.730155 0003 0000 1892
E: 93.730166 0000 0000 0
E: 93.744089 0003 0035 1896
E: 93.744103 0003 0000 1896
E: 93.744114 0000 0000 0
E: 93.757870 0003 0035 1902
E: 93.757876 0003 0036 4754
E: 93.757887 0003 0000 1902
E: 93.757891 0003 0001 4754
E: 93.757903 0000 0000 0
E: 93.771700 0003 0035 1884
E: 93.771707 0003 0036 4753
E: 93.771711 0003 003a 49
E: 93.771722 0003 0000 1884
E: 93.771727 0003 0001 4753
E: 93.771732 0003 0018 49
E: 93.771742 0000 0000 0
E: 93.807007 0003 0035 1886
E: 93.807013 0003 0036 4754
E: 93.807022 0003 003a 48
E: 93.807032 0003 0000 1886
E: 93.807035 0003 0001 4754
E: 93.807039 0003 0018 48
E: 93.807047 0000 0000 0
E: 93.828087 0003 0035 1872
E: 93.828092 0003 0036 4753
E: 93.828103 0003 0000 1872
E: 93.828106 0003 0001 4753
E: 93.828116 0000 0000 0
E: 93.841683 0003 0035 1906
E: 93.841687 0003 0036 4754
E: 93.841697 0003 0000 1906
E: 93.841701 0003 0001 4754
E: 93.841710 0000 0000 0
E: 93.869991 0003 0035 1888
E: 93.869996 0003 0036 4753
E: 93.870007 0003 0000 1888
E: 93.870010 0003 0001 4753
E: 93.870019 0000 0000 0
E: 93.884149 0003 0035 1860
E: 93.884156 0003 003a 49
E: 93.884165 0003 0000 1860
E: 93.884170 0003 0018 49
E: 93.884178 0000 0000 0
E: 93.897527 0003 0035 1874
E: 93.897532 0003 0036 4754
E: 93.897535 0003 003a 48
E: 93.897544 0003 0000 1874
E: 93.897547 0003 0001 4754
E: 93.897551 0003 0018 48
E: 93.897558 0000 0000 0
E: 93.916293 0003 0035 1906
E: 93.916308 0003 0000 1906
E: 93.916320 0000 0000 0
E: 93.925890 0003 0035 1908
E: 93.925895 0003 0036 4753
E: 93.925899 0003 003a 49
E: 93.925907 0003 0000 1908
E: 93.925911 0003 0001 4753
E: 93.925914 0003 0018 49
E: 93.925922 0000 0000 0
E: 93.938950 0003 0035 1886
E: 93.938955 0003 0036 4754
E: 93.938965 0003 0000 1886
E: 93.938969 0003 0001 4754
E: 93.938978 0000 0000 0
E: 93.953664 0003 0035 1900
E: 93.953668 0003 0036 4753
E: 93.953678 0003 0000 1900
E: 93.953682 0003 0001 4753
E: 93.953691 0000 0000 0
E: 93.967899 0003 003a 48
E: 93.967913 0003 0018 48
E: 93.967921 0000 0000 0
E: 93.995399 0003 0035 1896
E: 93.995411 0003 0000 1896
E: 93.995422 0000 0000 0
E: 94.009228 0003 0035 1874
E: 94.009233 0003 0036 4754
E: 94.009244 0003 0000 1874
E: 94.009247 0003 0001 4754
E: 94.009257 0000 0000 0
E: 94.023307 0003 0035 1886
E: 94.023320 0003 0000 1886
E: 94.023332 0000 0000 0
E: 94.037618 0003 0035 1896
E: 94.037623 0003 0036 4753
E: 94.037634 0003 0000 1896
E: 94.037638 0003 0001 4753
E: 94.037647 0000 0000 0
E: 94.050731 0003 0035 1884
E: 94.050744 0003 0000 1884
E: 94.050754 0000 0000 0
E: 94.065188 0003 0035 1886
E: 94.065192 0003 0036 4754
E: 94.065203 0003 0000 1886
E: 94.065206 0003 0001 4754
E: 94.065215 0000 0000 0
E: 94.079277 0003 0035 1896
E: 94.079281 0003 0036 4753
E: 94.079292 0003 0000 1896
E: 94.079295 0003 0001 4753
E: 94.079304 0000 0000 0
E: 94.109513 0003 0035 1885
E: 94.109517 0003 0036 4755
E: 94.109528 0003 0000 1885
E: 94.109531 0003 0001 4755
E: 94.109537 0001 0145 0
E: 94.109541 0001 014d 1
E: 94.109547 0000 0000 0
E: 94.137100 0003 0035 1881
E: 94.137109 0003 002f 1
E: 94.137111 0003 0039 64
E: 94.137116 0003 0035 3532
E: 94.137119 0003 0036 3356
E: 94.137123 0003 003a 52
E: 94.137128 0003 0000 1881
E: 94.137140 0000 0000 0
E: 94.165629 0003 002f 0
E: 94.165631 0003 0035 1909
E: 94.165643 0003 002f 1
E: 94.165645 0003 0035 3428
E: 94.165648 0003 0036 3332
E: 94.165652 0003 003a 56
E: 94.165657 0003 0000 1909
E: 94.165669 0000 0000 0
E: 94.192685 0003 002f 0
E: 94.192688 0003 0035 1873
E: 94.192699 0003 002f 1
E: 94.192701 0003 0035 3344
E: 94.192705 0003 0036 3308
E: 94.192709 0003 003a 60
E: 94.192715 0003 0000 1873
E: 94.192727 0000 0000 0
E: 94.221159 0003 0035 3280
E: 94.221165 0003 0036 3296
E: 94.221182 0000 0000 0
E: 94.248553 0003 002f 0
E: 94.248556 0003 0035 1897
E: 94.248568 0003 002f 1
E: 94.248570 0003 0035 3240
E: 94.248574 0003 0036 3292
E: 94.248577 0003 003a 56
E: 94.248583 0003 0000 1897
E: 94.248595 0000 0000 0
E: 94.276746 0003 002f 0
E: 94.276749 0003 0035 1901
E: 94.276761 0003 002f 1
E: 94.276763 0003 0035 3208
E: 94.276766 0003 0036 3260
E: 94.276770 0003 003a 60
E: 94.276776 0003 0000 1901
E: 94.276788 0000 0000 0
E: 94.305607 0003 002f 0
E: 94.305610 0003 0035 1861
E: 94.305622 0003 002f 1
E: 94.305624 0003 0035 3200
E: 94.305627 0003 0036 3256
E: 94.305634 0003 0000 1861
E: 94.305646 0000 0000 0
E: 94.333363 0003 002f 0
E: 94.333365 0003 0035 1893
E: 94.333377 0003 002f 1
E: 94.333379 0003 0035 3208
E: 94.333387 0003 0000 1893
E: 94.333399 0000 0000 0
E: 94.362141 0003 0036 3268
E: 94.362146 0003 003a 56
E: 94.362161 0000 0000 0
E: 94.386359 0003 002f 0
E: 94.386362 0003 0035 1880
E: 94.386365 0003 0036 4753
E: 94.386372 0003 002f 1
E: 94.386374 0003 0039 -1
E: 94.386380 0003 0000 1880
E: 94.386383 0003 0001 4753
E: 94.386388 0001 0145 1
E: 94.386392 0001 014d 0
E: 94.386397 0000 0000 0
E: 94.399435 0003 002f 0
E: 94.399437 0003 0035 1896
E: 94.399449 0003 0000 1896
E: 94.399459 0000 0000 0
E: 94.413965 0003 0035 1886
E: 94.413970 0003 0036 4754
E: 94.413980 0003 0000 1886
E: 94.413983 0003 0001 4754
E: 94.413992 0000 0000 0
E: 94.442319 0003 0035 1896
E: 94.442323 0003 0036 4753
E: 94.442333 0003 0000 1896
E: 94.442336 0003 0001 4753
E: 94.442345 0000 0000 0
E: 94.455489 0003 0035 1886
E: 94.455493 0003 0036 4754
E: 94.455496 0003 003a 47
E: 94.455505 0003 0000 1886
E: 94.455508 0003 0001 4754
E: 94.455512 0003 0018 47
E: 94.455519 0000 0000 0
E: 94.469778 0003 0035 1892
E: 94.469782 0003 0036 4753
E: 94.469786 0003 003a 48
E: 94.469795 0003 0000 1892
E: 94.469798 0003 0001 4753
E: 94.469801 0003 0018 48
E: 94.469809 0000 0000 0
E: 94.483702 0003 0035 1888
E: 94.483708 0003 003a 47
E: 94.483716 0003 0000 1888
E: 94.483721 0003 0018 47
E: 94.483728 0000 0000 0
E: 94.497871 0003 0035 1896
E: 94.497877 0003 003a 48
E: 94.497887 0003 0000 1896
E: 94.497892 0003 0018 48
E: 94.497900 0000 0000 0
E: 94.512144 0003 0035 1892
E: 94.512156 0003 0000 1892
E: 94.512167 0000 0000 0
E: 94.525557 0003 0035 1896
E: 94.525569 0003 0000 1896
E: 94.525580 0000 0000 0
E: 94.540296 0003 0035 1890
E: 94.540300 0003 0036 4754
E: 94.540310 0003 0000 1890
E: 94.540314 0003 0001 4754
E: 94.540323 0000 0000 0
E: 94.553511 0003 0035 1910
E: 94.553517 0003 003a 47
E: 94.553526 0003 0000 1910
E: 94.553531 0003 0018 47
E: 94.553539 0000 0000 0
E: 94.566751 0003 0035 1896
E: 94.566755 0003 0036 4753
E: 94.566759 0003 003a 48
E: 94.566768 0003 0000 1896
E: 94.566772 0003 0001 4753
E: 94.566775 0003 0018 48
E: 94.566783 0000 0000 0
E: 94.581081 0003 0035 1892
E: 94.581093 0003 0000 1892
E: 94.581104 0000 0000 0
E: 94.595128 0003 0035 1886
E: 94.595132 0003 0036 4754
E: 94.595135 0003 003a 47
E: 94.595144 0003 0000 1886
E: 94.595148 0003 0001 4754
E: 94.595151 0003 0018 47
E: 94.595158 0000 0000 0
E: 94.609280 0003 0035 1884
E: 94.609284 0003 0036 4753
E: 94.609294 0003 0000 1884
E: 94.609298 0003 0001 4753
E: 94.609307 0000 0000 0
E: 94.638825 0003 0035 1901
E: 94.638829 0003 0036 4755
E: 94.638832 0003 003a 48
E: 94.638841 0003 0000 1901
E: 94.638845 0003 0001 4755
E: 94.638848 0003 0018 48
E: 94.638852 0001 0145 0
E: 94.638856 0001 014d 1
E: 94.638861 0000 0000 0
E: 94.667594 0003 0035 1885
E: 94.667604 0003 002f 1
E: 94.667606 0003 0039 65
E: 94.667611 0003 0035 3812
E: 94.667615 0003 0036 3112
E: 94.667618 0003 003a 52
E: 94.667624 0003 0000 1885
E: 94.667636 0000 0000 0
E: 94.689825 0003 002f 0
E: 94.689828 0003 0035 1897
E: 94.689840 0003 002f 1
E: 94.689842 0003 0035 3784
E: 94.689845 0003 0036 3096
E: 94.689849 0003 003a 56
E: 94.689855 0003 0000 1897
E: 94.689866 0000 0000 0
E: 94.723718 0003 0035 3720
E: 94.723723 0003 0036 3068
E: 94.723726 0003 003a 60
E: 94.723742 0000 0000 0
E: 94.751359 0003 002f 0
E: 94.751362 0003 0035 1901
E: 94.751373 0003 002f 1
E: 94.751375 0003 0035 3672
E: 94.751379 0003 0036 3028
E: 94.751386 0003 0000 1901
E: 94.751398 0000 0000 0
E: 94.779669 0003 002f 0
E: 94.779672 0003 0035 1889
E: 94.779683 0003 002f 1
E: 94.779685 0003 0035 3616
E: 94.779693 0003 0000 1889
E: 94.779705 0000 0000 0
E: 94.806985 0003 002f 0
E: 94.806988 0003 0035 1913
E: 94.806999 0003 002f 1
E: 94.807001 0003 0035 3576
E: 94.807006 0003 0036 3040
E: 94.807015 0003 0000 1913
E: 94.807030 0000 0000 0
E: 94.834579 0003 002f 0
E: 94.834582 0003 0035 1881
E: 94.834594 0003 002f 1
E: 94.834596 0003 0035 3552
E: 94.834600 0003 0036 3044
E: 94.834607 0003 0000 1881
E: 94.834619 0000 0000 0
E: 94.861954 0003 002f 0
E: 94.861958 0003 0035 1897
E: 94.861969 0003 002f 1
E: 94.861971 0003 0035 3544
E: 94.861975 0003 0036 3040
E: 94.861978 0003 003a 56
E: 94.861984 0003 0000 1897
E: 94.861996 0000 0000 0
E: 94.887184 0003 002f 0
E: 94.887187 0003 0035 1896
E: 94.887191 0003 0036 4753
E: 94.887198 0003 002f 1
E: 94.887200 0003 0039 -1
E: 94.887206 0003 0000 1896
E: 94.887209 0003 0001 4753
E: 94.887215 0001 0145 1
E: 94.887219 0001 014d 0
E: 94.887224 0000 0000 0
E: 94.901386 0003 002f 0
E: 94.901390 0003 0035 1900
E: 94.901402 0003 0000 1900
E: 94.901413 0000 0000 0
E: 94.915655 0003 0035 1896
E: 94.915667 0003 0000 1896
E: 94.915678 0000 0000 0
E: 94.944182 0003 0035 1906
E: 94.944186 0003 0036 4754
E: 94.944196 0003 0000 1906
E: 94.944199 0003 0001 4754
E: 94.944208 0000 0000 0
E: 94.986066 0003 0035 1896
E: 94.986071 0003 0036 4753
E: 94.986081 0003 0000 1896
E: 94.986084 0003 0001 4753
E: 94.986093 0000 0000 0
E: 95.013134 0003 0035 1888
E: 95.013146 0003 0000 1888
E: 95.013157 0000 0000 0
E: 95.043776 0003 0035 1881
E: 95.043780 0003 0036 4755
E: 95.043791 0003 0000 1881
E: 95.043794 0003 0001 4755
E: 95.043800 0001 0145 0
E: 95.043803 0001 014d 1
E: 95.043809 0000 0000 0
E: 95.070893 0003 0035 1893
E: 95.070899 0003 003a 46
E: 95.070905 0003 002f 1
E: 95.070907 0003 0039 66
E: 95.070912 0003 0035 3956
E: 95.070915 0003 0036 3440
E: 95.070919 0003 003a 64
E: 95.070925 0003 0000 1893
E: 95.070930 0003 0018 46
E: 95.070939 0001 0110 1
E: 95.070943 0000 0000 0
E: 95.099462 0003 002f 0
E: 95.099465 0003 0035 1877
E: 95.099470 0003 003a 44
E: 95.099478 0003 002f 1
E: 95.099480 0003 0035 3964
E: 95.099484 0003 0036 3488
E: 95.099487 0003 003a 68
E: 95.099493 0003 0000 1877
E: 95.099498 0003 0018 44
E: 95.099509 0000 0000 0
E: 95.140545 0003 002f 0
E: 95.140548 0003 0035 1889
E: 95.140561 0003 002f 1
E: 95.140563 0003 0036 3508
E: 95.140570 0003 0000 1889
E: 95.140585 0000 0000 0
E: 95.168615 0003 002f 0
E: 95.168620 0003 0035 1897
E: 95.168626 0003 003a 46
E: 95.168637 0003 002f 1
E: 95.168639 0003 0035 3956
E: 95.168644 0003 0036 3492
E: 95.168653 0003 0000 1897
E: 95.168660 0003 0018 46
E: 95.168674 0000 0000 0
E: 95.196015 0003 002f 0
E: 95.196019 0003 0035 1905
E: 95.196034 0003 002f 1
E: 95.196037 0003 0035 3940
E: 95.196041 0003 0036 3424
E: 95.196046 0003 003a 64
E: 95.196053 0003 0000 1905
E: 95.196068 0001 0110 0
E: 95.196072 0000 0000 0
E: 95.223711 0003 002f 0
E: 95.223715 0003 0035 1873
E: 95.223720 0003 003a 48
E: 95.223729 0003 002f 1
E: 95.223731 0003 0035 3944
E: 95.223734 0003 0036 3380
E: 95.223738 0003 003a 56
E: 95.223743 0003 0000 1873
E: 95.223748 0003 0018 48
E: 95.223757 0000 0000 0
E: 95.249526 0003 002f 0
E: 95.249530 0003 0035 1914
E: 95.249534 0003 0036 4754
E: 95.249537 0003 003a 49
E: 95.249542 0003 002f 1
E: 95.249544 0003 0039 -1
E: 95.249550 0003 0000 1914
E: 95.249554 0003 0001 4754
E: 95.249557 0003 0018 49
E: 95.249561 0001 0145 1
E: 95.249565 0001 014d 0
E: 95.249570 0000 0000 0
E: 95.263354 0003 002f 0
E: 95.263360 0003 0035 1896
E: 95.263366 0003 0036 4753
E: 95.263371 0003 003a 48
E: 95.263384 0003 0000 1896
E: 95.263389 0003 0001 4753
E: 95.263395 0003 0018 48
E: 95.263404 0000 0000 0
E: 95.277217 0003 0035 1888
E: 95.277235 0003 0000 1888
E: 95.277250 0000 0000 0
E: 95.291064 0003 0035 1896
E: 95.291078 0003 0000 1896
E: 95.291089 0000 0000 0
E: 95.305243 0003 0035 1906
E: 95.305248 0003 0036 4754
E: 95.305260 0003 0000 1906
E: 95.305264 0003 0001 4754
E: 95.305274 0000 0000 0
E: 95.333164 0003 0035 1900
E: 95.333169 0003 0036 4753
E: 95.333180 0003 0000 1900
E: 95.333184 0003 0001 4753
E: 95.333193 0000 0000 0
E: 95.347202 0003 0035 1912
E: 95.347216 0003 0000 1912
E: 95.347226 0000 0000 0
E: 95.361262 0003 0035 1908
E: 95.361268 0003 003a 49
E: 95.361276 0003 0000 1908
E: 95.361281 0003 0018 49
E: 95.361289 0000 0000 0
E: 95.416280 0003 0035 1918
E: 95.416285 0003 0036 4754
E: 95.416289 0003 003a 50
E: 95.416298 0003 0000 1918
E: 95.416301 0003 0001 4754
E: 95.416305 0003 0018 50
E: 95.416312 0000 0000 0
E: 95.446615 0003 0035 1917
E: 95.446619 0003 0036 4755
E: 95.446622 0003 003a 48
E: 95.446631 0003 0000 1917
E: 95.446635 0003 0001 4755
E: 95.446638 0003 0018 48
E: 95.446642 0001 0145 0
E: 95.446646 0001 014d 1
E: 95.446651 0000 0000 0
E: 95.475323 0003 0035 1905
E: 95.475328 0003 003a 50
E: 95.475334 0003 002f 1
E: 95.475336 0003 0039 67
E: 95.475341 0003 0035 3768
E: 95.475344 0003 0036 3264
E: 95.475348 0003 003a 52
E: 95.475353 0003 0000 1905
E: 95.475358 0003 0018 50
E: 95.475367 0000 0000 0
E: 95.502754 0003 002f 0
E: 95.502757 0003 0035 1921
E: 95.502768 0003 002f 1
E: 95.502771 0003 0035 3720
E: 95.502774 0003 0036 3208
E: 95.502778 0003 003a 56
E: 95.502783 0003 0000 1921
E: 95.502795 0000 0000 0
E: 95.530368 0003 002f 0
E: 95.530371 0003 0035 1905
E: 95.530382 0003 002f 1
E: 95.530384 0003 0035 3704
E: 95.530388 0003 0036 3152
E: 95.530395 0003 0000 1905
E: 95.530407 0000 0000 0
E: 95.558495 0003 002f 0
E: 95.558498 0003 0035 1889
E: 95.558509 0003 002f 1
E: 95.558511 0003 0035 3736
E: 95.558514 0003 0036 3056
E: 95.558518 0003 003a 60
E: 95.558524 0003 0000 1889
E: 95.558535 0000 0000 0
E: 95.585564 0003 002f 0
E: 95.585567 0003 0035 1897
E: 95.585579 0003 002f 1
E: 95.585580 0003 0035 3856
E: 95.585584 0003 0036 2868
E: 95.585591 0003 0000 1897
E: 95.585603 0000 0000 0
E: 95.613992 0003 002f 0
E: 95.613996 0003 0035 1921
E: 95.614007 0003 002f 1
E: 95.614009 0003 0035 4036
E: 95.614013 0003 0036 2688
E: 95.614020 0003 0000 1921
E: 95.614032 0000 0000 0
E: 95.641696 0003 002f 0
E: 95.641699 0003 0035 1893
E: 95.641711 0003 002f 1
E: 95.641713 0003 0035 4204
E: 95.641716 0003 0036 2636
E: 95.641720 0003 003a 56
E: 95.641725 0003 0000 1893
E: 95.641737 0000 0000 0
E: 95.669186 0003 002f 0
E: 95.669191 0003 0035 1905
E: 95.669198 0003 003a 48
E: 95.669208 0003 002f 1
E: 95.669212 0003 0035 4380
E: 95.669216 0003 0036 2604
E: 95.669224 0003 0000 1905
E: 95.669229 0003 0018 48
E: 95.669238 0000 0000 0
E: 95.697668 0003 002f 0
E: 95.697671 0003 0035 1897
E: 95.697676 0003 003a 50
E: 95.697685 0003 002f 1
E: 95.697687 0003 0035 4540
E: 95.697690 0003 0036 2632
E: 95.697698 0003 0000 1897
E: 95.697703 0003 0018 50
E: 95.697712 0000 0000 0
E: 95.725449 0003 002f 0
E: 95.725452 0003 0035 1889
E: 95.725464 0003 002f 1
E: 95.725466 0003 0035 4640
E: 95.725469 0003 0036 2708
E: 95.725477 0003 0000 1889
E: 95.725489 0000 0000 0
E: 95.753116 0003 002f 0
E: 95.753119 0003 0035 1885
E: 95.753125 0003 003a 48
E: 95.753133 0003 002f 1
E: 95.753135 0003 0035 4684
E: 95.753139 0003 0036 2824
E: 95.753146 0003 0000 1885
E: 95.753151 0003 0018 48
E: 95.753160 0000 0000 0
E: 95.781552 0003 002f 0
E: 95.781555 0003 0035 1901
E: 95.781561 0003 003a 50
E: 95.781569 0003 002f 1
E: 95.781571 0003 0035 4712
E: 95.781574 0003 0036 2928
E: 95.781578 0003 003a 52
E: 95.781583 0003 0000 1901
E: 95.781589 0003 0018 50
E: 95.781597 0000 0000 0
E: 95.809186 0003 0035 4732
E: 95.809191 0003 0036 3016
E: 95.809208 0000 0000 0
E: 95.836275 0003 002f 0
E: 95.836278 0003 0035 1909
E: 95.836290 0003 002f 1
E: 95.836292 0003 0035 4748
E: 95.836295 0003 0036 3064
E: 95.836303 0003 0000 1909
E: 95.836315 0000 0000 0
E: 95.864869 0003 002f 0
E: 95.864872 0003 0035 1913
E: 95.864884 0003 002f 1
E: 95.864886 0003 0035 4776
E: 95.864889 0003 0036 3100
E: 95.864893 0003 003a 56
E: 95.864899 0003 0000 1913
E: 95.864911 0000 0000 0
E: 95.892029 0003 002f 0
E: 95.892032 0003 0035 1905
E: 95.892043 0003 002f 1
E: 95.892045 0003 0035 4816
E: 95.892049 0003 0036 3124
E: 95.892051 0003 003a 52
E: 95.892057 0003 0000 1905
E: 95.892069 0000 0000 0
E: 95.921049 0003 002f 0
E: 95.921052 0003 0035 1901
E: 95.921063 0003 002f 1
E: 95.921065 0003 0035 4904
E: 95.921069 0003 0036 3152
E: 95.921076 0003 0000 1901
E: 95.921088 0000 0000 0
E: 95.948505 0003 002f 0
E: 95.948508 0003 0035 1885
E: 95.948513 0003 003a 48
E: 95.948522 0003 002f 1
E: 95.948524 0003 0035 4956
E: 95.948528 0003 0036 3196
E: 95.948531 0003 003a 56
E: 95.948537 0003 0000 1885
E: 95.948542 0003 0018 48
E: 95.948551 0000 0000 0
E: 95.976389 0003 002f 0
E: 95.976392 0003 0035 1901
E: 95.976403 0003 002f 1
E: 95.976405 0003 0035 4988
E: 95.976409 0003 0036 3244
E: 95.976413 0003 003a 60
E: 95.976418 0003 0000 1901
E: 95.976430 0000 0000 0
E: 96.003568 0003 002f 0
E: 96.003571 0003 0035 1909
E: 96.003583 0003 002f 1
E: 96.003585 0003 0035 5004
E: 96.003588 0003 0036 3268
E: 96.003592 0003 003a 64
E: 96.003598 0003 0000 1909
E: 96.003610 0000 0000 0
E: 96.032920 0003 002f 0
E: 96.032923 0003 0035 1913
E: 96.032935 0003 002f 1
E: 96.032937 0003 0035 5016
E: 96.032941 0003 0036 3276
E: 96.032948 0003 0000 1913
E: 96.032960 0000 0000 0
E: 96.060032 0003 002f 0
E: 96.060035 0003 0035 1909
E: 96.060040 0003 003a 50
E: 96.060049 0003 002f 1
E: 96.060051 0003 0035 5012
E: 96.060054 0003 0036 3280
E: 96.060058 0003 003a 68
E: 96.060064 0003 0000 1909
E: 96.060069 0003 0018 50
E: 96.060078 0000 0000 0
E: 96.087579 0003 002f 0
E: 96.087583 0003 0035 1897
E: 96.087588 0003 003a 48
E: 96.087596 0003 002f 1
E: 96.087598 0003 0035 5016
E: 96.087602 0003 0036 3284
E: 96.087605 0003 003a 72
E: 96.087611 0003 0000 1897
E: 96.087616 0003 0018 48
E: 96.087625 0001 0110 1
E: 96.087629 0000 0000 0
E: 96.115203 0003 002f 0
E: 96.115206 0003 0035 1885
E: 96.115212 0003 003a 50
E: 96.115220 0003 002f 1
E: 96.115222 0003 0035 5020
E: 96.115225 0003 0036 3332
E: 96.115229 0003 003a 76
E: 96.115234 0003 0000 1885
E: 96.115239 0003 0018 50
E: 96.115250 0000 0000 0
E: 96.142938 0003 002f 0
E: 96.142941 0003 0035 1893
E: 96.142947 0003 003a 48
E: 96.142955 0003 002f 1
E: 96.142957 0003 0035 5032
E: 96.142961 0003 0036 3364
E: 96.142968 0003 0000 1893
E: 96.142973 0003 0018 48
E: 96.142984 0000 0000 0
E: 96.170994 0003 002f 0
E: 96.170998 0003 0035 1897
E: 96.171010 0003 002f 1
E: 96.171013 0003 0035 5024
E: 96.171022 0003 0000 1897
E: 96.171036 0000 0000 0
E: 96.198879 0003 002f 0
E: 96.198882 0003 0035 1909
E: 96.198888 0003 003a 50
E: 96.198896 0003 002f 1
E: 96.198898 0003 0035 5004
E: 96.198902 0003 0036 3308
E: 96.198905 0003 003a 72
E: 96.198911 0003 0000 1909
E: 96.198916 0003 0018 50
E: 96.198925 0001 0110 0
E: 96.198928 0000 0000 0
E: 96.226735 0003 002f 0
E: 96.226739 0003 0035 1921
E: 96.226754 0003 002f 1
E: 96.226756 0003 0035 4960
E: 96.226761 0003 0036 3204
E: 96.226765 0003 003a 60
E: 96.226772 0003 0000 1921
E: 96.226787 0000 0000 0
E: 96.251600 0003 002f 0
E: 96.251606 0003 0035 1918
E: 96.251611 0003 0036 4754
E: 96.251616 0003 003a 49
E: 96.251623 0003 002f 1
E: 96.251626 0003 0039 -1
E: 96.251635 0003 0000 1918
E: 96.251639 0003 0001 4754
E: 96.251643 0003 0018 49
E: 96.251650 0001 0145 1
E: 96.251655 0001 014d 0
E: 96.251662 0000 0000 0
E: 96.265756 0003 002f 0
E: 96.265760 0003 0035 1896
E: 96.265764 0003 0036 4753
E: 96.265775 0003 0000 1896
E: 96.265778 0003 0001 4753
E: 96.265788 0000 0000 0
E: 96.279591 0003 0035 1908
E: 96.279605 0003 0000 1908
E: 96.279617 0000 0000 0
E: 96.293665 0003 0035 1896
E: 96.293677 0003 0000 1896
E: 96.293686 0000 0000 0
E: 96.307720 0003 0035 1922
E: 96.307727 0003 0036 4754
E: 96.307741 0003 0000 1922
E: 96.307746 0003 0001 4754
E: 96.307758 0000 0000 0
E: 96.321959 0003 0035 1892
E: 96.321964 0003 0036 4753
E: 96.321968 0003 003a 48
E: 96.321977 0003 0000 1892
E: 96.321980 0003 0001 4753
E: 96.321984 0003 0018 48
E: 96.321997 0000 0000 0
E: 96.335866 0003 0035 1874
E: 96.335871 0003 0036 4754
E: 96.335874 0003 003a 49
E: 96.335883 0003 0000 1874
E: 96.335887 0003 0001 4754
E: 96.335890 0003 0018 49
E: 96.335898 0000 0000 0
E: 96.349924 0003 0035 1918
E: 96.349931 0003 003a 48
E: 96.349941 0003 0000 1918
E: 96.349946 0003 0018 48
E: 96.349955 0000 0000 0
E: 96.363966 0003 0035 1920
E: 96.363971 0003 0036 4753
E: 96.363975 0003 003a 49
E: 96.363984 0003 0000 1920
E: 96.363987 0003 0001 4753
E: 96.363991 0003 0018 49
E: 96.363999 0000 0000 0
E: 96.377823 0003 0035 1900
E: 96.377830 0003 003a 48
E: 96.377839 0003 0000 1900
E: 96.377844 0003 0018 48
E: 96.377852 0000 0000 0
E: 96.391989 0003 0035 1908
E: 96.392002 0003 0000 1908
E: 96.392013 0000 0000 0
E: 96.406244 0003 0035 1928
E: 96.406250 0003 003a 49
E: 96.406259 0003 0000 1928
E: 96.406265 0003 0018 49
E: 96.406272 0000 0000 0
E: 96.430242 0003 0035 1908
E: 96.430256 0003 0000 1908
E: 96.430266 0000 0000 0
E: 96.439175 0003 0035 1912
E: 96.439187 0003 0000 1912
E: 96.439197 0000 0000 0
E: 96.461165 0003 0035 1892
E: 96.461178 0003 0000 1892
E: 96.461188 0000 0000 0
E: 96.475597 0003 0035 1920
E: 96.475609 0003 0000 1920
E: 96.475619 0000 0000 0
E: 96.488751 0003 0035 1906
E: 96.488755 0003 0036 4754
E: 96.488765 0003 0000 1906
E: 96.488769 0003 0001 4754
E: 96.488778 0000 0000 0
E: 96.517321 0003 0035 1896
E: 96.517325 0003 0036 4753
E: 96.517335 0003 0000 1896
E: 96.517339 0003 0001 4753
E: 96.517348 0000 0000 0
E: 96.530538 0003 0035 1900
E: 96.530544 0003 003a 48
E: 96.530552 0003 0000 1900
E: 96.530558 0003 0018 48
E: 96.530565 0000 0000 0
E: 96.544648 0003 0035 1912
E: 96.544654 0003 003a 49
E: 96.544662 0003 0000 1912
E: 96.544667 0003 0018 49
E: 96.544675 0000 0000 0
E: 96.558675 0003 0035 1918
E: 96.558680 0003 0036 4754
E: 96.558690 0003 0000 1918
E: 96.558694 0003 0001 4754
E: 96.558703 0000 0000 0
E: 96.572759 0003 0035 1906
E: 96.572766 0003 003a 48
E: 96.572775 0003 0000 1906
E: 96.572780 0003 0018 48
E: 96.572787 0000 0000 0
E: 96.586986 0003 003a 49
E: 96.586998 0003 0018 49
E: 96.587006 0000 0000 0
E: 96.617065 0003 0035 1909
E: 96.617069 0003 0036 4755
E: 96.617073 0003 003a 48
E: 96.617082 0003 0000 1909
E: 96.617085 0003 0001 4755
E: 96.617089 0003 0018 48
E: 96.617093 0001 0145 0
E: 96.617096 0001 014d 1
E: 96.617102 0000 0000 0
E: 96.644585 0003 0035 1913
E: 96.644594 0003 002f 1
E: 96.644596 0003 0039 68
E: 96.644601 0003 0035 4552
E: 96.644605 0003 0036 3572
E: 96.644608 0003 003a 52
E: 96.644614 0003 0000 1913
E: 96.644625 0000 0000 0
E: 96.673154 0003 002f 0
E: 96.673157 0003 0035 1933
E: 96.673162 0003 003a 50
E: 96.673171 0003 002f 1
E: 96.673173 0003 0035 4516
E: 96.673176 0003 0036 3452
E: 96.673183 0003 0000 1933
E: 96.673189 0003 0018 50
E: 96.673197 0000 0000 0
E: 96.700441 0003 002f 0
E: 96.700444 0003 0035 1901
E: 96.700455 0003 002f 1
E: 96.700458 0003 0035 4500
E: 96.700461 0003 0036 3340
E: 96.700465 0003 003a 56
E: 96.700471 0003 0000 1901
E: 96.700483 0000 0000 0
E: 96.729105 0003 002f 0
E: 96.729108 0003 0035 1897
E: 96.729120 0003 002f 1
E: 96.729122 0003 0035 4524
E: 96.729125 0003 0036 3264
E: 96.729129 0003 003a 52
E: 96.729134 0003 0000 1897
E: 96.729146 0000 0000 0
E: 96.756532 0003 002f 0
E: 96.756535 0003 0035 1905
E: 96.756546 0003 002f 1
E: 96.756548 0003 0035 4572
E: 96.756552 0003 0036 3156
E: 96.756559 0003 0000 1905
E: 96.756571 0000 0000 0
E: 96.784154 0003 002f 0
E: 96.784157 0003 0035 1909
E: 96.784169 0003 002f 1
E: 96.784170 0003 0035 4612
E: 96.784174 0003 0036 3076
E: 96.784178 0003 003a 48
E: 96.784183 0003 0000 1909
E: 96.784195 0000 0000 0
E: 96.811412 0003 002f 0
E: 96.811415 0003 0035 1893
E: 96.811420 0003 003a 48
E: 96.811429 0003 002f 1
E: 96.811430 0003 0035 4656
E: 96.811434 0003 0036 3012
E: 96.811441 0003 0000 1893
E: 96.811446 0003 0018 48
E: 96.811455 0000 0000 0
E: 96.840228 0003 002f 0
E: 96.840231 0003 0035 1901
E: 96.840236 0003 003a 50
E: 96.840244 0003 002f 1
E: 96.840246 0003 0035 4668
E: 96.840250 0003 0036 2992
E: 96.840257 0003 0000 1901
E: 96.840262 0003 0018 50
E: 96.840270 0000 0000 0
E: 96.867652 0003 002f 0
E: 96.867656 0003 0035 1885
E: 96.867661 0003 003a 48
E: 96.867670 0003 002f 1
E: 96.867672 0003 0035 4708
E: 96.867675 0003 0036 2956
E: 96.867682 0003 0000 1885
E: 96.867688 0003 0018 48
E: 96.867697 0000 0000 0
E: 96.895113 0003 002f 0
E: 96.895116 0003 0035 1893
E: 96.895128 0003 002f 1
E: 96.895129 0003 0035 4752
E: 96.895133 0003 0036 2860
E: 96.895140 0003 0000 1893
E: 96.895152 0000 0000 0
E: 96.923736 0003 002f 0
E: 96.923740 0003 0035 1889
E: 96.923745 0003 003a 50
E: 96.923753 0003 002f 1
E: 96.923755 0003 0035 4808
E: 96.923759 0003 0036 2792
E: 96.923766 0003 0000 1889
E: 96.923771 0003 0018 50
E: 96.923780 0000 0000 0
E: 96.950715 0003 002f 0
E: 96.950718 0003 0035 1905
E: 96.950724 0003 003a 48
E: 96.950732 0003 002f 1
E: 96.950734 0003 0035 4880
E: 96.950737 0003 0036 2736
E: 96.950744 0003 0000 1905
E: 96.950750 0003 0018 48
E: 96.950758 0000 0000 0
E: 96.978885 0003 002f 0
E: 96.978889 0003 0035 1917
E: 96.978901 0003 002f 1
E: 96.978903 0003 0035 4916
E: 96.978906 0003 0036 2688
E: 96.978913 0003 0000 1917
E: 96.978926 0000 0000 0
E: 97.006164 0003 002f 0
E: 97.006167 0003 0035 1889
E: 97.006173 0003 003a 50
E: 97.006181 0003 002f 1
E: 97.006183 0003 0035 4928
E: 97.006187 0003 0036 2664
E: 97.006194 0003 0000 1889
E: 97.006199 0003 0018 50
E: 97.006208 0000 0000 0
E: 97.034307 0003 002f 0
E: 97.034311 0003 0035 1909
E: 97.034316 0003 003a 48
E: 97.034324 0003 002f 1
E: 97.034326 0003 0035 4924
E: 97.034330 0003 0036 2656
E: 97.034337 0003 0000 1909
E: 97.034342 0003 0018 48
E: 97.034351 0000 0000 0
E: 97.062551 0003 002f 0
E: 97.062555 0003 0035 1889
E: 97.062566 0003 002f 1
E: 97.062568 0003 0035 4936
E: 97.062572 0003 0036 2564
E: 97.062579 0003 0000 1889
E: 97.062591 0000 0000 0
E: 97.091157 0003 002f 0
E: 97.091161 0003 0035 1909
E: 97.091172 0003 002f 1
E: 97.091174 0003 0035 4976
E: 97.091178 0003 0036 2468
E: 97.091181 0003 003a 52
E: 97.091187 0003 0000 1909
E: 97.091199 0000 0000 0
E: 97.118427 0003 002f 0
E: 97.118430 0003 0035 1893
E: 97.118441 0003 002f 1
E: 97.118443 0003 0035 5016
E: 97.118447 0003 0036 2376
E: 97.118450 0003 003a 48
E: 97.118456 0003 0000 1893
E: 97.118468 0000 0000 0
E: 97.145868 0003 002f 0
E: 97.145871 0003 0035 1889
E: 97.145882 0003 002f 1
E: 97.145884 0003 0035 5052
E: 97.145888 0003 0036 2292
E: 97.145895 0003 0000 1889
E: 97.145907 0000 0000 0
E: 97.173458 0003 0035 5100
E: 97.173463 0003 0036 2244
E: 97.173480 0000 0000 0
E: 97.201722 0003 002f 0
E: 97.201725 0003 0035 1909
E: 97.201736 0003 002f 1
E: 97.201739 0003 0035 5112
E: 97.201747 0003 0000 1909
E: 97.201759 0000 0000 0
E: 97.229394 0003 002f 0
E: 97.229396 0003 0035 1881
E: 97.229408 0003 002f 1
E: 97.229410 0003 0035 5128
E: 97.229415 0003 003a 44
E: 97.229420 0003 0000 1881
E: 97.229432 0000 0000 0
E: 97.268808 0003 002f 0
E: 97.268811 0003 0035 1834
E: 97.268815 0003 0036 4754
E: 97.268818 0003 003a 32
E: 97.268824 0003 002f 1
E: 97.268826 0003 0039 -1
E: 97.268831 0003 0000 1834
E: 97.268835 0003 0001 4754
E: 97.268838 0003 0018 32
E: 97.268842 0001 0145 1
E: 97.268846 0001 014d 0
E: 97.268850 0000 0000 0
E: 97.282793 0003 002f 0
E: 97.282795 0003 0039 -1
E: 97.282803 0001 014a 0
E: 97.282805 0003 0018 0
E: 97.282808 0001 0145 0
E: 97.282812 0000 0000 0
E: 97.283312 0003 002f 0
E: 97.283312 0003 0039 -1
E: 97.283312 0003 002f 1
E: 97.283312 0003 0039 -1
